PCBNEW-LibModule-V1  Сб 01 фев 2014 12:50:07
# encoding utf-8
Units mm
$INDEX
pin_array_10x2
$EndINDEX
$MODULE pin_array_10x2
Po 0 0 0 15 52EC98C4 00000000 ~~
Li ARM_JTAG_10x2
Cd Double rangee de contacts 2 x 10 pins
Kw CONN
Sc 0
AR 
Op 0 0 0
T0 0.127 3.429 1.016 1.016 0 0.254 N V 21 N "ARM_JTAG"
T1 -0.127 -3.429 1.016 1.016 0 0.2032 N V 21 N "Val**"
DS -1.905 2.54 -12.7 2.54 0.381 21
DS 12.7 2.54 1.905 2.54 0.381 21
DS -12.7 -2.54 12.7 -2.54 0.381 21
DS 12.7 -2.54 12.7 2.54 0.381 21
DS -12.7 -2.54 -12.7 2.54 0.381 21
$PAD
Sh "1" R 1.524 1.524 0 0 0
Dr 0.8128 0 0
At STD N 00E0FFFF
Ne 0 ""
Po -11.43 1.27
$EndPAD
$PAD
Sh "2" C 1.524 1.524 0 0 0
Dr 1.016 0 0
At STD N 00E0FFFF
Ne 0 ""
Po -11.43 -1.27
$EndPAD
$PAD
Sh "3" C 1.524 1.524 0 0 0
Dr 1.016 0 0
At STD N 00E0FFFF
Ne 0 ""
Po -8.89 1.27
$EndPAD
$PAD
Sh "4" C 1.524 1.524 0 0 0
Dr 1.016 0 0
At STD N 00E0FFFF
Ne 0 ""
Po -8.89 -1.27
$EndPAD
$PAD
Sh "5" C 1.524 1.524 0 0 0
Dr 1.016 0 0
At STD N 00E0FFFF
Ne 0 ""
Po -6.35 1.27
$EndPAD
$PAD
Sh "6" C 1.524 1.524 0 0 0
Dr 1.016 0 0
At STD N 00E0FFFF
Ne 0 ""
Po -6.35 -1.27
$EndPAD
$PAD
Sh "7" C 1.524 1.524 0 0 0
Dr 1.016 0 0
At STD N 00E0FFFF
Ne 0 ""
Po -3.81 1.27
$EndPAD
$PAD
Sh "8" C 1.524 1.524 0 0 0
Dr 1.016 0 0
At STD N 00E0FFFF
Ne 0 ""
Po -3.81 -1.27
$EndPAD
$PAD
Sh "9" C 1.524 1.524 0 0 0
Dr 1.016 0 0
At STD N 00E0FFFF
Ne 0 ""
Po -1.27 1.27
$EndPAD
$PAD
Sh "10" C 1.524 1.524 0 0 0
Dr 1.016 0 0
At STD N 00E0FFFF
Ne 0 ""
Po -1.27 -1.27
$EndPAD
$PAD
Sh "11" C 1.524 1.524 0 0 0
Dr 1.016 0 0
At STD N 00E0FFFF
Ne 0 ""
Po 1.27 1.27
$EndPAD
$PAD
Sh "12" C 1.524 1.524 0 0 0
Dr 1.016 0 0
At STD N 00E0FFFF
Ne 0 ""
Po 1.27 -1.27
$EndPAD
$PAD
Sh "13" C 1.524 1.524 0 0 0
Dr 1.016 0 0
At STD N 00E0FFFF
Ne 0 ""
Po 3.81 1.27
$EndPAD
$PAD
Sh "14" C 1.524 1.524 0 0 0
Dr 1.016 0 0
At STD N 00E0FFFF
Ne 0 ""
Po 3.81 -1.27
$EndPAD
$PAD
Sh "15" C 1.524 1.524 0 0 0
Dr 1.016 0 0
At STD N 00E0FFFF
Ne 0 ""
Po 6.35 1.27
$EndPAD
$PAD
Sh "16" C 1.524 1.524 0 0 0
Dr 1.016 0 0
At STD N 00E0FFFF
Ne 0 ""
Po 6.35 -1.27
$EndPAD
$PAD
Sh "17" C 1.524 1.524 0 0 0
Dr 1.016 0 0
At STD N 00E0FFFF
Ne 0 ""
Po 8.89 1.27
$EndPAD
$PAD
Sh "18" C 1.524 1.524 0 0 0
Dr 1.016 0 0
At STD N 00E0FFFF
Ne 0 ""
Po 8.89 -1.27
$EndPAD
$PAD
Sh "19" C 1.524 1.524 0 0 0
Dr 1.016 0 0
At STD N 00E0FFFF
Ne 0 ""
Po 11.43 1.27
$EndPAD
$PAD
Sh "20" C 1.524 1.524 0 0 0
Dr 1.016 0 0
At STD N 00E0FFFF
Ne 0 ""
Po 11.43 -1.27
$EndPAD
$SHAPE3D
Na "pin_array/pins_array_10x2.wrl"
Sc 1 1 1
Of 0 0 0
Ro 0 0 0
$EndSHAPE3D
$EndMODULE ARM_JTAG_10x2
$EndLIBRARY
