PCBNEW-LibModule-V1  Пн 25 ноя 2013 23:02:11
# encoding utf-8
$INDEX
CR2032_BATTERY
$EndINDEX
$MODULE CR2032_BATTERY
Po 0 0 0 15 52938270 00000000 ~~
Li CR2032_BATTERY
Sc 00000000
AR 
Op 0 0 0
T0 0 1378 600 600 0 120 N V 21 N "CR2032_BATTERY"
T1 197 -1378 600 600 0 120 N V 21 N "VAL**"
DS -1378 -4134 -1378 -5315 150 21
DS -1378 -5315 1378 -5315 150 21
DS 1378 -5315 1378 -4134 150 21
DC 0 0 4350 -25 150 21
$PAD
Sh "1" C 787 787 0 0 0
Dr 197 0 0
At STD N 00E0FFFF
Ne 0 ""
Po 0 3150
$EndPAD
$PAD
Sh "2" C 787 787 0 0 0
Dr 197 0 0
At STD N 00E0FFFF
Ne 0 ""
Po 0 -4528
$EndPAD
$EndMODULE  CR2032_BATTERY
$EndLIBRARY
