EESchema Schematic File Version 2
LIBS:power
LIBS:device
LIBS:transistors
LIBS:conn
LIBS:linear
LIBS:regul
LIBS:74xx
LIBS:cmos4000
LIBS:adc-dac
LIBS:memory
LIBS:xilinx
LIBS:special
LIBS:microcontrollers
LIBS:dsp
LIBS:microchip
LIBS:analog_switches
LIBS:motorola
LIBS:texas
LIBS:intel
LIBS:audio
LIBS:interface
LIBS:digital-audio
LIBS:philips
LIBS:display
LIBS:cypress
LIBS:siliconi
LIBS:opto
LIBS:atmel
LIBS:contrib
LIBS:valves
LIBS:stm32
LIBS:comm
LIBS:a4988
LIBS:n_fet
LIBS:project-cache
EELAYER 24 0
EELAYER END
$Descr A4 11693 8268
encoding utf-8
Sheet 9 17
Title ""
Date "31 jan 2014"
Rev "0.01"
Comp ""
Comment1 ""
Comment2 ""
Comment3 ""
Comment4 ""
$EndDescr
Connection ~ 7300 2600
Wire Wire Line
	7300 2750 7300 2600
Wire Wire Line
	5400 2500 5400 2700
Wire Wire Line
	7300 4900 5000 4900
Connection ~ 5400 2600
Wire Wire Line
	5400 2600 5800 2600
Connection ~ 7000 2600
Wire Wire Line
	7000 2600 7000 2750
Wire Wire Line
	5000 3400 5000 3600
Wire Wire Line
	6400 2600 6400 2750
Wire Wire Line
	6400 3150 6400 3300
Wire Wire Line
	7600 3100 7500 3100
Wire Wire Line
	6800 3400 6800 3300
Wire Wire Line
	6800 3800 6800 3900
Wire Wire Line
	5000 4900 5000 4800
Connection ~ 5000 4200
Connection ~ 5800 4500
Wire Wire Line
	5400 4400 5400 4500
Wire Wire Line
	5400 4500 5800 4500
Connection ~ 5400 3300
Wire Wire Line
	5400 3900 5500 3900
Connection ~ 5800 3600
Wire Wire Line
	5900 3600 5800 3600
Wire Wire Line
	5800 3500 5800 3700
Wire Wire Line
	5500 3300 5400 3300
Wire Wire Line
	5400 3200 5400 4000
Connection ~ 5400 3900
Wire Wire Line
	5800 2600 5800 3100
Wire Wire Line
	4900 4200 5100 4200
Wire Wire Line
	5000 4100 5000 4300
Wire Wire Line
	6500 3600 6400 3600
Wire Wire Line
	4200 4200 4400 4200
Connection ~ 6800 3300
Wire Wire Line
	6400 3300 7600 3300
Wire Wire Line
	7500 3100 7500 2600
Connection ~ 5800 4900
Wire Wire Line
	6800 3900 7300 3900
Connection ~ 7300 3900
Wire Wire Line
	5000 3500 5000 3500
Wire Wire Line
	5800 4100 5800 5000
Wire Wire Line
	7000 3150 7000 3900
Connection ~ 7000 3900
Wire Wire Line
	7500 2600 6300 2600
Connection ~ 6400 2600
Wire Wire Line
	7300 3150 7300 4900
$Comp
L +12V #PWR802
U 1 1 52E8F437
P 5400 2500
AR Path="/52E0E103/52E8F437" Ref="#PWR802"  Part="1" 
AR Path="/52E104A4/52E8F437" Ref="#PWR902"  Part="1" 
AR Path="/52E104B6/52E8F437" Ref="#PWR1002"  Part="1" 
F 0 "#PWR1002" H 5400 2450 20  0001 C CNN
F 1 "+12V" H 5400 2600 30  0000 C CNN
F 2 "" H 5400 2500 60  0001 C CNN
F 3 "" H 5400 2500 60  0001 C CNN
	1    5400 2500
	1    0    0    -1  
$EndComp
$Comp
L CP1 C802
U 1 1 52E1112E
P 7300 2950
AR Path="/52E0E103/52E1112E" Ref="C802"  Part="1" 
AR Path="/52E104A4/52E1112E" Ref="C902"  Part="1" 
AR Path="/52E104B6/52E1112E" Ref="C1002"  Part="1" 
F 0 "C1002" H 7350 3050 50  0000 L CNN
F 1 "220u 40V" H 7150 2850 50  0000 L CNN
F 2 "" H 7300 2950 60  0001 C CNN
F 3 "" H 7300 2950 60  0001 C CNN
	1    7300 2950
	-1   0    0    -1  
$EndComp
Text HLabel 6300 2600 0    60   Input ~ 0
VHH
Text HLabel 4200 4200 0    60   Input ~ 0
~PWM
$Comp
L +3.3V #PWR801
U 1 1 52E0E42D
P 5000 3400
AR Path="/52E0E103/52E0E42D" Ref="#PWR801"  Part="1" 
AR Path="/52E104A4/52E0E42D" Ref="#PWR901"  Part="1" 
AR Path="/52E104B6/52E0E42D" Ref="#PWR1001"  Part="1" 
F 0 "#PWR1001" H 5000 3360 30  0001 C CNN
F 1 "+3.3V" H 5000 3510 30  0000 C CNN
F 2 "" H 5000 3400 60  0001 C CNN
F 3 "" H 5000 3400 60  0001 C CNN
	1    5000 3400
	1    0    0    -1  
$EndComp
$Comp
L CONN_2 P801
U 1 1 52B26D04
P 7950 3200
AR Path="/52E0E103/52B26D04" Ref="P801"  Part="1" 
AR Path="/52E104A4/52B26D04" Ref="P901"  Part="1" 
AR Path="/52E104B6/52B26D04" Ref="P1001"  Part="1" 
F 0 "P1001" V 7900 3200 40  0000 C CNN
F 1 "LOAD" V 8000 3200 40  0000 C CNN
F 2 "AK300-2" H 7950 3200 60  0001 C CNN
F 3 "" H 7950 3200 60  0001 C CNN
	1    7950 3200
	1    0    0    1   
$EndComp
Text Label 5800 3600 0    60   ~ 0
G
Text Label 5000 4200 0    60   ~ 0
CTL
Text Label 5400 3650 0    60   ~ 0
DRV
Text Label 6800 3300 0    60   ~ 0
PSW
$Comp
L DIODESCH D801
U 1 1 52B1B30B
P 6400 2950
AR Path="/52E0E103/52B1B30B" Ref="D801"  Part="1" 
AR Path="/52E104A4/52B1B30B" Ref="D901"  Part="1" 
AR Path="/52E104B6/52B1B30B" Ref="D1001"  Part="1" 
F 0 "D1001" H 6400 3050 40  0000 C CNN
F 1 "SS26 (opt)" H 6400 2850 40  0000 C CNN
F 2 "SM1206" H 6400 2950 60  0001 C CNN
F 3 "" H 6400 2950 60  0001 C CNN
F 4 "Inductivity load only" H 6550 2750 60  0000 C CNN "Note"
	1    6400 2950
	0    -1   -1   0   
$EndComp
$Comp
L GND #PWR803
U 1 1 52B1B2EE
P 5800 5000
AR Path="/52E0E103/52B1B2EE" Ref="#PWR803"  Part="1" 
AR Path="/52E104A4/52B1B2EE" Ref="#PWR903"  Part="1" 
AR Path="/52E104B6/52B1B2EE" Ref="#PWR1003"  Part="1" 
F 0 "#PWR1003" H 5800 5000 30  0001 C CNN
F 1 "GND" H 5800 4930 30  0001 C CNN
F 2 "" H 5800 5000 60  0001 C CNN
F 3 "" H 5800 5000 60  0001 C CNN
	1    5800 5000
	1    0    0    -1  
$EndComp
$Comp
L C C801
U 1 1 52B1B12B
P 7000 2950
AR Path="/52E0E103/52B1B12B" Ref="C801"  Part="1" 
AR Path="/52E104A4/52B1B12B" Ref="C901"  Part="1" 
AR Path="/52E104B6/52B1B12B" Ref="C1001"  Part="1" 
F 0 "C1001" H 7050 3050 50  0000 L CNN
F 1 "100n" H 7050 2850 50  0000 L CNN
F 2 "SM0603" H 7000 2950 60  0001 C CNN
F 3 "" H 7000 2950 60  0001 C CNN
	1    7000 2950
	-1   0    0    -1  
$EndComp
$Comp
L R R802
U 1 1 52B1B119
P 5000 3850
AR Path="/52E0E103/52B1B119" Ref="R802"  Part="1" 
AR Path="/52E104A4/52B1B119" Ref="R902"  Part="1" 
AR Path="/52E104B6/52B1B119" Ref="R1002"  Part="1" 
F 0 "R1002" V 5080 3850 50  0000 C CNN
F 1 "10K" V 5000 3850 50  0000 C CNN
F 2 "SM0603" H 5000 3850 60  0001 C CNN
F 3 "" H 5000 3850 60  0001 C CNN
F 4 "Default is close" V 4900 3700 60  0000 C CNN "Note"
	1    5000 3850
	-1   0    0    1   
$EndComp
$Comp
L R R803
U 1 1 52B1B111
P 5000 4550
AR Path="/52E0E103/52B1B111" Ref="R803"  Part="1" 
AR Path="/52E104A4/52B1B111" Ref="R903"  Part="1" 
AR Path="/52E104B6/52B1B111" Ref="R1003"  Part="1" 
F 0 "R1003" V 5080 4550 50  0000 C CNN
F 1 "10K" V 5000 4550 50  0000 C CNN
F 2 "SM0603" H 5000 4550 60  0001 C CNN
F 3 "" H 5000 4550 60  0001 C CNN
F 4 "Default is open" V 4900 4600 60  0000 C CNN "Note"
	1    5000 4550
	-1   0    0    1   
$EndComp
$Comp
L R R801
U 1 1 52B1B0F8
P 4650 4200
AR Path="/52E0E103/52B1B0F8" Ref="R801"  Part="1" 
AR Path="/52E104A4/52B1B0F8" Ref="R901"  Part="1" 
AR Path="/52E104B6/52B1B0F8" Ref="R1001"  Part="1" 
F 0 "R1001" V 4730 4200 50  0000 C CNN
F 1 "1K" V 4650 4200 50  0000 C CNN
F 2 "SM0603" H 4650 4200 60  0001 C CNN
F 3 "" H 4650 4200 60  0001 C CNN
	1    4650 4200
	0    -1   -1   0   
$EndComp
$Comp
L R R804
U 1 1 52B1B0EC
P 5400 2950
AR Path="/52E0E103/52B1B0EC" Ref="R804"  Part="1" 
AR Path="/52E104A4/52B1B0EC" Ref="R904"  Part="1" 
AR Path="/52E104B6/52B1B0EC" Ref="R1004"  Part="1" 
F 0 "R1004" V 5480 2950 50  0000 C CNN
F 1 "10K" V 5400 2950 50  0000 C CNN
F 2 "SM0603" H 5400 2950 60  0001 C CNN
F 3 "" H 5400 2950 60  0001 C CNN
	1    5400 2950
	-1   0    0    1   
$EndComp
$Comp
L R R805
U 1 1 52B1B0E0
P 6150 3600
AR Path="/52E0E103/52B1B0E0" Ref="R805"  Part="1" 
AR Path="/52E104A4/52B1B0E0" Ref="R905"  Part="1" 
AR Path="/52E104B6/52B1B0E0" Ref="R1005"  Part="1" 
F 0 "R1005" V 6230 3600 50  0000 C CNN
F 1 "36R" V 6150 3600 50  0000 C CNN
F 2 "SM0603" H 6150 3600 60  0001 C CNN
F 3 "" H 6150 3600 60  0001 C CNN
	1    6150 3600
	0    -1   -1   0   
$EndComp
$Comp
L NPN Q801
U 1 1 52B1B0C3
P 5300 4200
AR Path="/52E0E103/52B1B0C3" Ref="Q801"  Part="1" 
AR Path="/52E104A4/52B1B0C3" Ref="Q901"  Part="1" 
AR Path="/52E104B6/52B1B0C3" Ref="Q1001"  Part="1" 
F 0 "Q1001" H 5300 4350 50  0000 R CNN
F 1 "2N3904" H 5750 4100 50  0000 R CNN
F 2 "SOT23_INV" H 5300 4200 60  0001 C CNN
F 3 "" H 5300 4200 60  0001 C CNN
	1    5300 4200
	1    0    0    -1  
$EndComp
$Comp
L PNP Q803
U 1 1 52B1B0B8
P 5700 3900
AR Path="/52E0E103/52B1B0B8" Ref="Q803"  Part="1" 
AR Path="/52E104A4/52B1B0B8" Ref="Q903"  Part="1" 
AR Path="/52E104B6/52B1B0B8" Ref="Q1003"  Part="1" 
F 0 "Q1003" H 5700 3750 60  0000 R CNN
F 1 "S9012" H 6200 4000 60  0000 R CNN
F 2 "SOT23_INV" H 5700 3900 60  0001 C CNN
F 3 "" H 5700 3900 60  0001 C CNN
	1    5700 3900
	1    0    0    1   
$EndComp
$Comp
L NPN Q802
U 1 1 52B1B0A9
P 5700 3300
AR Path="/52E0E103/52B1B0A9" Ref="Q802"  Part="1" 
AR Path="/52E104A4/52B1B0A9" Ref="Q902"  Part="1" 
AR Path="/52E104B6/52B1B0A9" Ref="Q1002"  Part="1" 
F 0 "Q1002" H 5700 3450 50  0000 R CNN
F 1 "S9013" H 6150 3200 50  0000 R CNN
F 2 "SOT23_INV" H 5700 3300 60  0001 C CNN
F 3 "" H 5700 3300 60  0001 C CNN
	1    5700 3300
	1    0    0    -1  
$EndComp
$Comp
L N_FET Q804
U 1 1 52EE25AC
P 6700 3600
AR Path="/52E0E103/52EE25AC" Ref="Q804"  Part="1" 
AR Path="/52E104A4/52EE25AC" Ref="Q904"  Part="1" 
AR Path="/52E104B6/52EE25AC" Ref="Q1004"  Part="1" 
F 0 "Q1004" H 6710 3770 60  0000 R CNN
F 1 "B55N03" H 6710 3450 60  0000 R CNN
F 2 "D2PAK" H 6700 3600 60  0001 C CNN
F 3 "" H 6700 3600 60  0000 C CNN
	1    6700 3600
	1    0    0    -1  
$EndComp
$EndSCHEMATC
