EESchema Schematic File Version 2
LIBS:power
LIBS:device
LIBS:transistors
LIBS:conn
LIBS:linear
LIBS:regul
LIBS:74xx
LIBS:cmos4000
LIBS:adc-dac
LIBS:memory
LIBS:xilinx
LIBS:special
LIBS:microcontrollers
LIBS:dsp
LIBS:microchip
LIBS:analog_switches
LIBS:motorola
LIBS:texas
LIBS:intel
LIBS:audio
LIBS:interface
LIBS:digital-audio
LIBS:philips
LIBS:display
LIBS:cypress
LIBS:siliconi
LIBS:opto
LIBS:atmel
LIBS:contrib
LIBS:valves
LIBS:stm32
LIBS:comm
LIBS:a4988
LIBS:n_fet
LIBS:project-cache
EELAYER 24 0
EELAYER END
$Descr A4 11693 8268
encoding utf-8
Sheet 2 17
Title ""
Date "31 jan 2014"
Rev "0.01"
Comp ""
Comment1 ""
Comment2 ""
Comment3 ""
Comment4 ""
$EndDescr
Connection ~ 2800 5300
Wire Wire Line
	2800 5300 2800 5100
Wire Wire Line
	2200 5300 3300 5300
Connection ~ 2800 4500
Wire Wire Line
	3000 4500 3000 4600
Wire Wire Line
	2200 4500 3200 4500
Connection ~ 2600 4500
Wire Wire Line
	2600 4400 2600 5700
Wire Wire Line
	2400 4700 2400 5900
Connection ~ 6400 1650
Wire Wire Line
	6400 1650 6400 1550
Wire Wire Line
	5700 2750 5700 2850
Wire Wire Line
	6300 3700 6300 3900
Connection ~ 6300 1650
Wire Wire Line
	6300 1650 6300 2500
Connection ~ 6200 2400
Wire Wire Line
	7100 2400 7100 2500
Wire Wire Line
	6000 2400 7100 2400
Wire Wire Line
	5100 1650 5100 1200
Wire Wire Line
	6100 1650 6600 1650
Wire Wire Line
	6100 3650 6100 3800
Connection ~ 6300 3100
Wire Wire Line
	6300 3000 6300 3200
Wire Wire Line
	6900 3400 7100 3400
Wire Wire Line
	6900 3400 6900 3300
Wire Wire Line
	8400 2800 8700 2800
Wire Wire Line
	9700 1500 9700 3100
Wire Wire Line
	8600 2400 8600 2500
Wire Wire Line
	9600 2500 9350 2500
Wire Wire Line
	9500 1400 9800 1400
Wire Wire Line
	9500 1800 9800 1800
Wire Wire Line
	9700 1500 9500 1500
Wire Wire Line
	4900 2400 5500 2400
Wire Wire Line
	2600 5100 2200 5100
Connection ~ 2500 5200
Wire Wire Line
	2200 4600 2500 4600
Connection ~ 2400 5300
Wire Wire Line
	2400 4700 2200 4700
Wire Wire Line
	2200 5400 2300 5400
Wire Wire Line
	2400 2100 1800 2100
Wire Wire Line
	2400 1800 1800 1800
Wire Wire Line
	2400 1600 1800 1600
Wire Wire Line
	1900 2400 1900 1900
Wire Wire Line
	1900 1900 2400 1900
Connection ~ 2100 3000
Wire Wire Line
	1900 2900 1900 3000
Wire Wire Line
	1900 3000 2300 3000
Wire Wire Line
	2100 2400 2100 2200
Wire Wire Line
	2100 2200 2400 2200
Connection ~ 3600 2300
Wire Wire Line
	3600 1500 3600 2400
Wire Wire Line
	3600 1300 3600 1400
Connection ~ 3600 2100
Wire Wire Line
	3600 2200 3500 2200
Connection ~ 3600 1900
Wire Wire Line
	3600 2000 3500 2000
Connection ~ 3600 1700
Wire Wire Line
	3600 1800 3500 1800
Wire Wire Line
	3500 1600 3600 1600
Wire Wire Line
	3600 1400 3500 1400
Wire Wire Line
	3600 1500 3500 1500
Wire Wire Line
	3600 1700 3500 1700
Connection ~ 3600 1600
Wire Wire Line
	3600 1900 3500 1900
Connection ~ 3600 1800
Wire Wire Line
	3600 2100 3500 2100
Connection ~ 3600 2000
Wire Wire Line
	3600 2300 3500 2300
Connection ~ 3600 2200
Wire Wire Line
	2400 1400 2300 1400
Wire Wire Line
	2300 1400 2300 1300
Wire Wire Line
	2400 2300 2300 2300
Wire Wire Line
	2300 2300 2300 2400
Wire Wire Line
	2300 3000 2300 2900
Wire Wire Line
	2100 2900 2100 3100
Wire Wire Line
	2400 1500 1800 1500
Wire Wire Line
	2400 1700 1800 1700
Wire Wire Line
	2400 2000 1800 2000
Wire Wire Line
	2200 4800 2300 4800
Connection ~ 2300 5400
Wire Wire Line
	8800 4100 10000 4100
Wire Wire Line
	9400 4100 9400 4200
Wire Wire Line
	9700 4700 9700 4800
Wire Wire Line
	9400 5300 9400 5200
Wire Wire Line
	9400 4700 9400 4800
Wire Wire Line
	8800 5200 8800 5300
Wire Wire Line
	8800 4100 8800 4200
Wire Wire Line
	8800 4800 8800 4700
Wire Wire Line
	9100 4100 9100 4000
Connection ~ 9100 4100
Wire Wire Line
	9700 5200 9700 5300
Wire Wire Line
	8500 4800 8500 4700
Wire Wire Line
	8500 5200 8500 5300
Wire Wire Line
	5300 1750 5300 1650
Wire Wire Line
	5300 1650 5400 1650
Wire Wire Line
	6200 2100 5750 2100
Wire Wire Line
	5400 2600 5400 2400
Wire Wire Line
	6500 3800 6500 2050
Wire Wire Line
	5750 2100 5750 2000
Connection ~ 5750 1200
Wire Wire Line
	5750 1300 5750 1200
Connection ~ 6500 2300
Wire Wire Line
	6500 2050 6600 2050
Connection ~ 5100 2500
Wire Wire Line
	5100 2150 5100 2600
Connection ~ 5250 3100
Wire Wire Line
	5250 3200 5250 3100
Wire Wire Line
	5100 3000 5100 3100
Wire Wire Line
	5100 3100 5400 3100
Wire Wire Line
	5400 3100 5400 3000
Connection ~ 5400 2400
Wire Wire Line
	6500 2300 6800 2300
Wire Wire Line
	6800 2300 6800 2200
Wire Wire Line
	5100 1200 6200 1200
Wire Wire Line
	6900 2750 6900 2900
Wire Wire Line
	4900 2500 5100 2500
Wire Wire Line
	8500 3000 10000 3000
Wire Wire Line
	8500 3000 8500 2400
Wire Wire Line
	9600 1700 9500 1700
Connection ~ 9600 1700
Wire Wire Line
	9500 1900 9800 1900
Wire Wire Line
	9500 1600 9800 1600
Wire Wire Line
	9400 2900 9700 2900
Wire Wire Line
	9600 2700 9350 2700
Wire Wire Line
	9600 1200 9600 2700
Connection ~ 9600 2500
Wire Wire Line
	8700 2700 8700 2900
Wire Wire Line
	8700 2900 8800 2900
Wire Wire Line
	8700 2700 8850 2700
Connection ~ 9700 3000
Connection ~ 9700 2900
Connection ~ 8600 2500
Connection ~ 8700 2800
Wire Wire Line
	8400 2500 8850 2500
Wire Wire Line
	6600 1750 6200 1750
Wire Wire Line
	6100 3250 6100 3100
Wire Wire Line
	6200 1850 6200 2400
Wire Wire Line
	6200 1850 6600 1850
Connection ~ 6200 2100
Wire Wire Line
	6200 1750 6200 1200
Wire Wire Line
	6100 3100 6600 3100
Wire Wire Line
	7100 3400 7100 3000
Wire Wire Line
	6100 3800 6500 3800
Connection ~ 6300 3800
Wire Wire Line
	5700 3350 5700 3450
Connection ~ 5700 3450
Wire Wire Line
	4900 3450 5800 3450
Wire Wire Line
	6400 1150 6400 1050
Wire Wire Line
	2300 4800 2300 6100
Wire Wire Line
	2500 4600 2500 5800
Wire Wire Line
	2800 4600 2800 4500
Wire Wire Line
	2200 5200 3300 5200
Wire Wire Line
	3000 5100 3000 5200
Connection ~ 3000 5200
$Comp
L +5V #PWR211
U 1 1 52E0CDA9
P 6400 1050
F 0 "#PWR211" H 6400 1140 20  0001 C CNN
F 1 "+5V" H 6400 1140 30  0000 C CNN
F 2 "" H 6400 1050 60  0001 C CNN
F 3 "" H 6400 1050 60  0001 C CNN
	1    6400 1050
	1    0    0    -1  
$EndComp
$Comp
L DIODESCH D201
U 1 1 52E0CD94
P 6400 1350
F 0 "D201" H 6400 1450 40  0000 C CNN
F 1 "SS14" H 6400 1250 40  0000 C CNN
F 2 "SM0805" H 6400 1350 60  0001 C CNN
F 3 "" H 6400 1350 60  0001 C CNN
	1    6400 1350
	0    -1   -1   0   
$EndComp
$Comp
L +3.3V #PWR209
U 1 1 52E0B903
P 5700 2750
F 0 "#PWR209" H 5700 2710 30  0001 C CNN
F 1 "+3.3V" H 5700 2860 30  0000 C CNN
F 2 "" H 5700 2750 60  0001 C CNN
F 3 "" H 5700 2750 60  0001 C CNN
	1    5700 2750
	1    0    0    -1  
$EndComp
$Comp
L R R207
U 1 1 52E0B8DB
P 5700 3100
F 0 "R207" V 5780 3100 50  0000 C CNN
F 1 "47K" V 5700 3100 50  0000 C CNN
F 2 "SM0603" H 5700 3100 60  0001 C CNN
F 3 "" H 5700 3100 60  0001 C CNN
	1    5700 3100
	-1   0    0    1   
$EndComp
$Comp
L R R209
U 1 1 52E0B673
P 6300 2750
F 0 "R209" V 6380 2750 50  0000 C CNN
F 1 "10K" V 6300 2750 50  0000 C CNN
F 2 "SM0603" H 6300 2750 60  0001 C CNN
F 3 "" H 6300 2750 60  0001 C CNN
	1    6300 2750
	-1   0    0    1   
$EndComp
$Comp
L R R210
U 1 1 52E0B668
P 6300 3450
F 0 "R210" V 6380 3450 50  0000 C CNN
F 1 "36K" V 6300 3450 50  0000 C CNN
F 2 "SM0603" H 6300 3450 60  0001 C CNN
F 3 "" H 6300 3450 60  0001 C CNN
	1    6300 3450
	-1   0    0    1   
$EndComp
$Comp
L +3.3V #PWR214
U 1 1 52E0B627
P 6900 2750
F 0 "#PWR214" H 6900 2710 30  0001 C CNN
F 1 "+3.3V" H 6900 2860 30  0000 C CNN
F 2 "" H 6900 2750 60  0001 C CNN
F 3 "" H 6900 2750 60  0001 C CNN
	1    6900 2750
	1    0    0    -1  
$EndComp
$Comp
L NPN Q201
U 1 1 52E0B5B5
P 6000 3450
F 0 "Q201" H 6000 3600 50  0000 R CNN
F 1 "2N3904" H 6000 3300 50  0000 R CNN
F 2 "SOT23_INV" H 6000 3450 60  0001 C CNN
F 3 "" H 6000 3450 60  0001 C CNN
	1    6000 3450
	1    0    0    -1  
$EndComp
$Comp
L NPN Q202
U 1 1 52E0B591
P 6800 3100
F 0 "Q202" H 6800 3250 50  0000 R CNN
F 1 "2N3904" H 6800 2950 50  0000 R CNN
F 2 "SOT23_INV" H 6800 3100 60  0001 C CNN
F 3 "" H 6800 3100 60  0001 C CNN
	1    6800 3100
	1    0    0    -1  
$EndComp
$Comp
L SW_PUSH SW201
U 1 1 52E0B0D6
P 9100 2900
F 0 "SW201" H 9250 3010 50  0000 C CNN
F 1 "EJECT" H 9100 2850 50  0000 C CNN
F 2 "SW_PUSH_SMALL" H 9100 2900 60  0001 C CNN
F 3 "" H 9100 2900 60  0001 C CNN
	1    9100 2900
	1    0    0    -1  
$EndComp
$Comp
L R R215
U 1 1 52E0B0D5
P 9100 2700
F 0 "R215" V 9180 2700 50  0000 C CNN
F 1 "10K" V 9100 2700 50  0000 C CNN
F 2 "SM0603" H 9100 2700 60  0001 C CNN
F 3 "" H 9100 2700 60  0001 C CNN
	1    9100 2700
	0    -1   -1   0   
$EndComp
$Comp
L GND #PWR220
U 1 1 52E0B0D4
P 9700 3100
F 0 "#PWR220" H 9700 3100 30  0001 C CNN
F 1 "GND" H 9700 3030 30  0001 C CNN
F 2 "" H 9700 3100 60  0001 C CNN
F 3 "" H 9700 3100 60  0001 C CNN
	1    9700 3100
	1    0    0    -1  
$EndComp
Text Notes 5100 1100 0    60   ~ 0
USB
$Comp
L R R206
U 1 1 52E0AD94
P 5100 1900
F 0 "R206" V 5180 1900 50  0000 C CNN
F 1 "22" V 5100 1900 50  0000 C CNN
F 2 "SM0603" H 5100 1900 60  0001 C CNN
F 3 "" H 5100 1900 60  0001 C CNN
	1    5100 1900
	-1   0    0    1   
$EndComp
$Comp
L R R208
U 1 1 52E0AD93
P 5750 2400
F 0 "R208" V 5830 2400 50  0000 C CNN
F 1 "22" V 5750 2400 50  0000 C CNN
F 2 "SM0603" H 5750 2400 60  0001 C CNN
F 3 "" H 5750 2400 60  0001 C CNN
	1    5750 2400
	0    1    -1   0   
$EndComp
$Comp
L C C202
U 1 1 52E0AD92
P 5100 2800
F 0 "C202" H 5150 2900 50  0000 L CNN
F 1 "47p" H 5150 2700 50  0000 L CNN
F 2 "SM0603" H 5100 2800 60  0001 C CNN
F 3 "" H 5100 2800 60  0001 C CNN
	1    5100 2800
	-1   0    0    -1  
$EndComp
$Comp
L GND #PWR210
U 1 1 52E0AD91
P 6300 3900
F 0 "#PWR210" H 6300 3900 30  0001 C CNN
F 1 "GND" H 6300 3830 30  0001 C CNN
F 2 "" H 6300 3900 60  0001 C CNN
F 3 "" H 6300 3900 60  0001 C CNN
	1    6300 3900
	1    0    0    -1  
$EndComp
$Comp
L GND #PWR207
U 1 1 52E0AD90
P 5250 3200
F 0 "#PWR207" H 5250 3200 30  0001 C CNN
F 1 "GND" H 5250 3130 30  0001 C CNN
F 2 "" H 5250 3200 60  0001 C CNN
F 3 "" H 5250 3200 60  0001 C CNN
	1    5250 3200
	1    0    0    -1  
$EndComp
$Comp
L C C203
U 1 1 52E0AD8E
P 5400 2800
F 0 "C203" H 5450 2900 50  0000 L CNN
F 1 "47p" H 5450 2700 50  0000 L CNN
F 2 "SM0603" H 5400 2800 60  0001 C CNN
F 3 "" H 5400 2800 60  0001 C CNN
	1    5400 2800
	1    0    0    -1  
$EndComp
Text Label 5800 2100 0    60   ~ 0
USBDP
$Comp
L USB-OTG J202
U 1 1 52E0AD8D
P 6800 1850
F 0 "J202" H 6800 2150 60  0000 C CNN
F 1 "USB-OTG" H 6800 1550 60  0000 C CNN
F 2 "MINIUSB_5PIN" H 6800 1850 60  0001 C CNN
F 3 "" H 6800 1850 60  0001 C CNN
	1    6800 1850
	1    0    0    -1  
$EndComp
$Comp
L ESD_PROT U201
U 1 1 52E0AD8C
P 5750 1650
F 0 "U201" H 5600 1900 60  0000 C CNN
F 1 "ESD_PROT" H 5750 1400 60  0000 C CNN
F 2 "SOT143B" H 5750 1650 60  0001 C CNN
F 3 "" H 5750 1650 60  0001 C CNN
	1    5750 1650
	1    0    0    1   
$EndComp
Text Label 5200 1200 0    60   ~ 0
USBDM
$Comp
L GND #PWR208
U 1 1 52E0AD8B
P 5300 1750
F 0 "#PWR208" H 5300 1750 30  0001 C CNN
F 1 "GND" H 5300 1680 30  0001 C CNN
F 2 "" H 5300 1750 60  0001 C CNN
F 3 "" H 5300 1750 60  0001 C CNN
	1    5300 1750
	1    0    0    -1  
$EndComp
$Comp
L R R211
U 1 1 52E0AD8A
P 7100 2750
F 0 "R211" V 7180 2750 50  0000 C CNN
F 1 "1.5K" V 7100 2750 50  0000 C CNN
F 2 "SM0603" H 7100 2750 60  0001 C CNN
F 3 "" H 7100 2750 60  0001 C CNN
	1    7100 2750
	-1   0    0    1   
$EndComp
$Comp
L GND #PWR216
U 1 1 52E0AC70
P 8500 5300
F 0 "#PWR216" H 8500 5300 30  0001 C CNN
F 1 "GND" H 8500 5230 30  0001 C CNN
F 2 "" H 8500 5300 60  0001 C CNN
F 3 "" H 8500 5300 60  0001 C CNN
	1    8500 5300
	1    0    0    -1  
$EndComp
$Comp
L R R212
U 1 1 52E0AC6F
P 8500 4450
F 0 "R212" V 8580 4450 50  0000 C CNN
F 1 "1K" V 8500 4450 50  0000 C CNN
F 2 "SM0603" H 8500 4450 60  0001 C CNN
F 3 "" H 8500 4450 60  0001 C CNN
	1    8500 4450
	-1   0    0    1   
$EndComp
$Comp
L LED D202
U 1 1 52E0AC6E
P 8500 5000
F 0 "D202" H 8500 5100 50  0000 C CNN
F 1 "EXTERN_POWER (RED)" H 8450 4900 50  0000 C CNN
F 2 "LED-0603" H 8500 5000 60  0001 C CNN
F 3 "" H 8500 5000 60  0001 C CNN
	1    8500 5000
	0    -1   1    0   
$EndComp
Text Notes 8850 3750 0    60   ~ 0
Indicators
$Comp
L LED D203
U 1 1 52E0AC21
P 8800 5000
F 0 "D203" H 8800 5100 50  0000 C CNN
F 1 "LOGIC_POWER (YELLOW)" H 8750 4900 50  0000 C CNN
F 2 "LED-0603" H 8800 5000 60  0001 C CNN
F 3 "" H 8800 5000 60  0001 C CNN
	1    8800 5000
	0    -1   1    0   
$EndComp
$Comp
L R R213
U 1 1 52E0AC20
P 8800 4450
F 0 "R213" V 8880 4450 50  0000 C CNN
F 1 "680" V 8800 4450 50  0000 C CNN
F 2 "SM0603" H 8800 4450 60  0001 C CNN
F 3 "" H 8800 4450 60  0001 C CNN
	1    8800 4450
	-1   0    0    1   
$EndComp
$Comp
L +3.3V #PWR218
U 1 1 52E0AC1F
P 9100 4000
F 0 "#PWR218" H 9100 3960 30  0001 C CNN
F 1 "+3.3V" H 9100 4110 30  0000 C CNN
F 2 "" H 9100 4000 60  0001 C CNN
F 3 "" H 9100 4000 60  0001 C CNN
	1    9100 4000
	1    0    0    -1  
$EndComp
$Comp
L GND #PWR217
U 1 1 52E0AC1E
P 8800 5300
F 0 "#PWR217" H 8800 5300 30  0001 C CNN
F 1 "GND" H 8800 5230 30  0001 C CNN
F 2 "" H 8800 5300 60  0001 C CNN
F 3 "" H 8800 5300 60  0001 C CNN
	1    8800 5300
	1    0    0    -1  
$EndComp
$Comp
L R R216
U 1 1 52E0AC1D
P 9400 4450
F 0 "R216" V 9480 4450 50  0000 C CNN
F 1 "680" V 9400 4450 50  0000 C CNN
F 2 "SM0603" H 9400 4450 60  0001 C CNN
F 3 "" H 9400 4450 60  0001 C CNN
	1    9400 4450
	-1   0    0    1   
$EndComp
$Comp
L LED D204
U 1 1 52E0AC1C
P 9400 5000
F 0 "D204" H 9400 5100 50  0000 C CNN
F 1 "STATUS (GREEN)" H 9300 4900 50  0000 C CNN
F 2 "LED-0603" H 9400 5000 60  0001 C CNN
F 3 "" H 9400 5000 60  0001 C CNN
	1    9400 5000
	0    -1   1    0   
$EndComp
$Comp
L LED D205
U 1 1 52E0AC1B
P 9700 5000
F 0 "D205" H 9700 5100 50  0000 C CNN
F 1 "STEP (BLUE)" H 9650 4900 50  0000 C CNN
F 2 "LED-0603" H 9700 5000 60  0001 C CNN
F 3 "" H 9700 5000 60  0001 C CNN
	1    9700 5000
	0    -1   1    0   
$EndComp
$Comp
L R R217
U 1 1 52E0AC1A
P 9700 4450
F 0 "R217" V 9780 4450 50  0000 C CNN
F 1 "680" V 9700 4450 50  0000 C CNN
F 2 "SM0603" H 9700 4450 60  0001 C CNN
F 3 "" H 9700 4450 60  0001 C CNN
	1    9700 4450
	-1   0    0    1   
$EndComp
Text Notes 8400 1100 0    60   ~ 0
Micro SD Card
$Comp
L SD_CARD J203
U 1 1 52E0AB88
P 8800 1700
F 0 "J203" H 8800 2150 60  0000 C CNN
F 1 "SD_CARD" V 9100 1650 60  0000 C CNN
F 2 "uSD" H 8800 1700 60  0001 C CNN
F 3 "" H 8800 1700 60  0001 C CNN
	1    8800 1700
	-1   0    0    1   
$EndComp
$Comp
L R R214
U 1 1 52E0AB86
P 9100 2500
F 0 "R214" V 9180 2500 50  0000 C CNN
F 1 "10K" V 9100 2500 50  0000 C CNN
F 2 "SM0603" H 9100 2500 60  0001 C CNN
F 3 "" H 9100 2500 60  0001 C CNN
	1    9100 2500
	0    -1   -1   0   
$EndComp
$Comp
L +3.3V #PWR219
U 1 1 52E0AB85
P 9600 1200
F 0 "#PWR219" H 9600 1160 30  0001 C CNN
F 1 "+3.3V" H 9600 1310 30  0000 C CNN
F 2 "" H 9600 1200 60  0001 C CNN
F 3 "" H 9600 1200 60  0001 C CNN
	1    9600 1200
	1    0    0    -1  
$EndComp
$Comp
L CONN_4 P201
U 1 1 52E0A9E8
P 1850 4650
F 0 "P201" V 1800 4650 50  0000 C CNN
F 1 "I2C_1_1" V 1900 4650 50  0000 C CNN
F 2 "SIL-4" H 1850 4650 60  0001 C CNN
F 3 "" H 1850 4650 60  0001 C CNN
	1    1850 4650
	-1   0    0    1   
$EndComp
Text Notes 1750 4350 0    60   ~ 0
I2C (optional)
$Comp
L R R204
U 1 1 52E0A9B1
P 2800 4850
F 0 "R204" V 2880 4850 50  0000 C CNN
F 1 "4.7K" V 2800 4850 50  0000 C CNN
F 2 "SM0603" H 2800 4850 60  0001 C CNN
F 3 "" H 2800 4850 60  0001 C CNN
	1    2800 4850
	-1   0    0    1   
$EndComp
$Comp
L R R205
U 1 1 52E0A9B0
P 3000 4850
F 0 "R205" V 3080 4850 50  0000 C CNN
F 1 "4.7K" V 3000 4850 50  0000 C CNN
F 2 "SM0603" H 3000 4850 60  0001 C CNN
F 3 "" H 3000 4850 60  0001 C CNN
	1    3000 4850
	-1   0    0    1   
$EndComp
$Comp
L +3.3V #PWR204
U 1 1 52E0A9AE
P 2600 4400
F 0 "#PWR204" H 2600 4360 30  0001 C CNN
F 1 "+3.3V" H 2600 4510 30  0000 C CNN
F 2 "" H 2600 4400 60  0001 C CNN
F 3 "" H 2600 4400 60  0001 C CNN
	1    2600 4400
	1    0    0    -1  
$EndComp
$Comp
L CONN_4 P202
U 1 1 52E0A9AD
P 1850 5250
F 0 "P202" V 1800 5250 50  0000 C CNN
F 1 "I2C_1_2" V 1900 5250 50  0000 C CNN
F 2 "SIL-4" H 1850 5250 60  0001 C CNN
F 3 "" H 1850 5250 60  0001 C CNN
	1    1850 5250
	-1   0    0    1   
$EndComp
$Comp
L GND #PWR203
U 1 1 52E0A9AB
P 2300 6100
F 0 "#PWR203" H 2300 6100 30  0001 C CNN
F 1 "GND" H 2300 6030 30  0001 C CNN
F 2 "" H 2300 6100 60  0001 C CNN
F 3 "" H 2300 6100 60  0001 C CNN
	1    2300 6100
	1    0    0    -1  
$EndComp
Text Notes 1500 1100 0    60   ~ 0
JTAG (flash/debug)
$Comp
L R R201
U 1 1 52E0A689
P 1900 2650
F 0 "R201" V 1980 2650 50  0000 C CNN
F 1 "10K" V 1900 2650 50  0000 C CNN
F 2 "SM0603" H 1900 2650 60  0001 C CNN
F 3 "" H 1900 2650 60  0001 C CNN
	1    1900 2650
	-1   0    0    -1  
$EndComp
$Comp
L R R202
U 1 1 52E0A686
P 2100 2650
F 0 "R202" V 2180 2650 50  0000 C CNN
F 1 "10K" V 2100 2650 50  0000 C CNN
F 2 "SM0603" H 2100 2650 60  0001 C CNN
F 3 "" H 2100 2650 60  0001 C CNN
	1    2100 2650
	-1   0    0    -1  
$EndComp
$Comp
L R R203
U 1 1 52E0A672
P 2300 2650
F 0 "R203" V 2380 2650 50  0000 C CNN
F 1 "10K" V 2300 2650 50  0000 C CNN
F 2 "SM0603" H 2300 2650 60  0001 C CNN
F 3 "" H 2300 2650 60  0001 C CNN
	1    2300 2650
	-1   0    0    -1  
$EndComp
$Comp
L GND #PWR201
U 1 1 52E0A669
P 2100 3100
F 0 "#PWR201" H 2100 3100 30  0001 C CNN
F 1 "GND" H 2100 3030 30  0001 C CNN
F 2 "" H 2100 3100 60  0001 C CNN
F 3 "" H 2100 3100 60  0001 C CNN
	1    2100 3100
	1    0    0    -1  
$EndComp
$Comp
L +3.3V #PWR202
U 1 1 52E0A646
P 2300 1300
F 0 "#PWR202" H 2300 1260 30  0001 C CNN
F 1 "+3.3V" H 2300 1410 30  0000 C CNN
F 2 "" H 2300 1300 60  0001 C CNN
F 3 "" H 2300 1300 60  0001 C CNN
	1    2300 1300
	1    0    0    -1  
$EndComp
$Comp
L +3.3V #PWR205
U 1 1 52E0A633
P 3600 1300
F 0 "#PWR205" H 3600 1260 30  0001 C CNN
F 1 "+3.3V" H 3600 1410 30  0000 C CNN
F 2 "" H 3600 1300 60  0001 C CNN
F 3 "" H 3600 1300 60  0001 C CNN
	1    3600 1300
	1    0    0    -1  
$EndComp
$Comp
L GND #PWR206
U 1 1 52E0A62C
P 3600 2400
F 0 "#PWR206" H 3600 2400 30  0001 C CNN
F 1 "GND" H 3600 2330 30  0001 C CNN
F 2 "" H 3600 2400 60  0001 C CNN
F 3 "" H 3600 2400 60  0001 C CNN
	1    3600 2400
	1    0    0    -1  
$EndComp
$Comp
L ARM-JTAG J201
U 1 1 52E0A601
P 2950 1900
F 0 "J201" H 2950 2550 60  0000 C CNN
F 1 "ARM-JTAG" H 2950 1350 60  0000 C CNN
F 2 "ARM_JTAG_10x2" H 2950 1900 60  0001 C CNN
F 3 "" H 2950 1900 60  0001 C CNN
	1    2950 1900
	1    0    0    -1  
$EndComp
$Comp
L +5V #PWR215
U 1 1 52EBBD6D
P 8500 4000
F 0 "#PWR215" H 8500 4090 20  0001 C CNN
F 1 "+5V" H 8500 4090 30  0000 C CNN
F 2 "" H 8500 4000 60  0000 C CNN
F 3 "" H 8500 4000 60  0000 C CNN
	1    8500 4000
	1    0    0    -1  
$EndComp
Wire Wire Line
	8500 4000 8500 4200
Wire Wire Line
	10000 4700 10000 4800
Wire Wire Line
	10000 5200 10000 5300
$Comp
L LED D206
U 1 1 52EBDE8D
P 10000 5000
F 0 "D206" H 10000 5100 50  0000 C CNN
F 1 "WAIT (WHITE)" H 9950 4900 50  0000 C CNN
F 2 "LED-0603" H 10000 5000 60  0001 C CNN
F 3 "" H 10000 5000 60  0001 C CNN
	1    10000 5000
	0    -1   1    0   
$EndComp
$Comp
L R R218
U 1 1 52EBDE93
P 10000 4450
F 0 "R218" V 10080 4450 50  0000 C CNN
F 1 "680" V 10000 4450 50  0000 C CNN
F 2 "SM0603" H 10000 4450 60  0001 C CNN
F 3 "" H 10000 4450 60  0001 C CNN
	1    10000 4450
	-1   0    0    1   
$EndComp
Wire Wire Line
	9700 4100 9700 4200
Connection ~ 9400 4100
Text HLabel 9400 5300 3    60   Input ~ 0
~LED_1
Text HLabel 9700 5300 3    60   Input ~ 0
~LED_2
Text HLabel 10000 5300 3    60   Input ~ 0
~LED_3
Wire Wire Line
	10000 4100 10000 4200
Connection ~ 9700 4100
Text HLabel 8400 2500 0    60   Input ~ 0
~SD_INS
Text HLabel 8400 2800 0    60   Input ~ 0
SD_EJ
Text HLabel 9800 1400 2    60   Input ~ 0
SD_DO
Text HLabel 9800 1600 2    60   Input ~ 0
SD_SCK
Text HLabel 9800 1800 2    60   Input ~ 0
SD_DI
Text HLabel 9800 1900 2    60   Input ~ 0
SD_CS
Text HLabel 4900 2400 0    60   Input ~ 0
USB_DP
Text HLabel 4900 2500 0    60   Input ~ 0
USB_DM
Text HLabel 4900 3450 0    60   Input ~ 0
USB_DISC
Text HLabel 3300 5200 2    60   Input ~ 0
I2C_1_SCL
Text HLabel 3300 5300 2    60   Input ~ 0
I2C_1_SDA
Text HLabel 1800 1500 0    60   Input ~ 0
NJTRST
Text HLabel 1800 1600 0    60   Input ~ 0
JTDI
Text HLabel 1800 1700 0    60   Input ~ 0
JTMS/SWDIO
Text HLabel 1800 1800 0    60   Input ~ 0
JTCK/SWCLK
Text HLabel 1800 2000 0    60   Input ~ 0
JTDO
Text HLabel 1800 2100 0    60   Input ~ 0
NRST
Text Notes 5900 4600 0    60   ~ 0
SPI (optional)
$Comp
L CONN_4 P203
U 1 1 52F237B6
P 1850 5850
F 0 "P203" V 1800 5850 50  0000 C CNN
F 1 "I2C_1_2" V 1900 5850 50  0000 C CNN
F 2 "SIL-4" H 1850 5850 60  0001 C CNN
F 3 "" H 1850 5850 60  0001 C CNN
	1    1850 5850
	-1   0    0    1   
$EndComp
Wire Wire Line
	2200 6000 3200 6000
Connection ~ 2300 6000
Wire Wire Line
	2600 5700 2200 5700
Connection ~ 2600 5100
Wire Wire Line
	2500 5800 2200 5800
Wire Wire Line
	2400 5900 2200 5900
Text HLabel 5400 5000 0    60   Input ~ 0
SPI_1_CS1
Text HLabel 5400 5500 0    60   Input ~ 0
SPI_1_CS2
Text HLabel 5400 6000 0    60   Input ~ 0
SPI_1_CS3
Text HLabel 5400 4900 0    60   Input ~ 0
SPI_1_SCK
$Comp
L CONN_3X2 P204
U 1 1 52F25215
P 6200 4950
F 0 "P204" H 6200 5200 50  0000 C CNN
F 1 "SPI_1_1" V 6200 5000 40  0000 C CNN
F 2 "pin_array_3x2" H 6200 4950 60  0001 C CNN
F 3 "" H 6200 4950 60  0000 C CNN
	1    6200 4950
	1    0    0    -1  
$EndComp
$Comp
L CONN_3X2 P205
U 1 1 52F2525D
P 6200 5450
F 0 "P205" H 6200 5700 50  0000 C CNN
F 1 "SPI_1_2" V 6200 5500 40  0000 C CNN
F 2 "pin_array_3x2" H 6200 5450 60  0001 C CNN
F 3 "" H 6200 5450 60  0000 C CNN
	1    6200 5450
	1    0    0    -1  
$EndComp
$Comp
L CONN_3X2 P206
U 1 1 52F25263
P 6200 5950
F 0 "P206" H 6200 6200 50  0000 C CNN
F 1 "SPI_1_3" V 6200 6000 40  0000 C CNN
F 2 "pin_array_3x2" H 6200 5950 60  0001 C CNN
F 3 "" H 6200 5950 60  0000 C CNN
	1    6200 5950
	1    0    0    -1  
$EndComp
$Comp
L +3.3V #PWR213
U 1 1 52F25729
P 6800 4700
F 0 "#PWR213" H 6800 4660 30  0001 C CNN
F 1 "+3.3V" H 6800 4810 30  0000 C CNN
F 2 "" H 6800 4700 60  0000 C CNN
F 3 "" H 6800 4700 60  0000 C CNN
	1    6800 4700
	1    0    0    -1  
$EndComp
Wire Wire Line
	6800 4700 6800 5800
$Comp
L GND #PWR212
U 1 1 52F259C9
P 6700 6100
F 0 "#PWR212" H 6700 6100 30  0001 C CNN
F 1 "GND" H 6700 6030 30  0001 C CNN
F 2 "" H 6700 6100 60  0000 C CNN
F 3 "" H 6700 6100 60  0000 C CNN
	1    6700 6100
	1    0    0    -1  
$EndComp
Wire Wire Line
	6600 5000 6700 5000
Wire Wire Line
	6700 5000 6700 6100
Wire Wire Line
	6600 6000 7200 6000
Connection ~ 6700 6000
Wire Wire Line
	6600 5500 6700 5500
Connection ~ 6700 5500
Wire Wire Line
	5400 4900 5800 4900
Wire Wire Line
	5600 4900 5600 5900
Wire Wire Line
	5600 5400 5800 5400
Connection ~ 5600 4900
Wire Wire Line
	5600 5900 5800 5900
Connection ~ 5600 5400
Wire Wire Line
	6600 4800 7200 4800
Wire Wire Line
	6800 5300 6600 5300
Connection ~ 6800 4800
Wire Wire Line
	6800 5800 6600 5800
Connection ~ 6800 5300
Wire Wire Line
	5800 5000 5400 5000
Wire Wire Line
	5800 5500 5400 5500
Wire Wire Line
	5800 6000 5400 6000
Text HLabel 5400 4800 0    60   Input ~ 0
SPI_1_MISO
Text HLabel 7300 4900 2    60   Input ~ 0
SPI_1_MOSI
Wire Wire Line
	5400 4800 5800 4800
Wire Wire Line
	5800 5300 5700 5300
Wire Wire Line
	5700 4800 5700 5800
Connection ~ 5700 4800
Wire Wire Line
	5700 5800 5800 5800
Connection ~ 5700 5300
Wire Wire Line
	6600 4900 7300 4900
Wire Wire Line
	6900 4900 6900 5900
Wire Wire Line
	6900 5400 6600 5400
Connection ~ 6900 4900
Wire Wire Line
	6900 5900 6600 5900
Connection ~ 6900 5400
$Comp
L C C205
U 1 1 52F2FD31
P 10000 2600
F 0 "C205" H 10050 2700 50  0000 L CNN
F 1 "100n" H 10050 2500 50  0000 L CNN
F 2 "SM0603" H 10000 2600 60  0001 C CNN
F 3 "" H 10000 2600 60  0001 C CNN
	1    10000 2600
	-1   0    0    -1  
$EndComp
Wire Wire Line
	10000 3000 10000 2800
Wire Wire Line
	10000 2400 10000 2200
Wire Wire Line
	10000 2200 9600 2200
Connection ~ 9600 2200
$Comp
L C C201
U 1 1 52F320F3
P 3200 5700
F 0 "C201" H 3250 5800 50  0000 L CNN
F 1 "100n" H 3250 5600 50  0000 L CNN
F 2 "SM0603" H 3200 5700 60  0001 C CNN
F 3 "" H 3200 5700 60  0001 C CNN
	1    3200 5700
	-1   0    0    -1  
$EndComp
Wire Wire Line
	3200 6000 3200 5900
Wire Wire Line
	3200 4500 3200 5500
Connection ~ 3000 4500
$Comp
L C C204
U 1 1 52F327F7
P 7200 5400
F 0 "C204" H 7250 5500 50  0000 L CNN
F 1 "100n" H 7250 5300 50  0000 L CNN
F 2 "SM0603" H 7200 5400 60  0001 C CNN
F 3 "" H 7200 5400 60  0001 C CNN
	1    7200 5400
	-1   0    0    -1  
$EndComp
Wire Wire Line
	7200 6000 7200 5600
Wire Wire Line
	7200 4800 7200 5200
$EndSCHEMATC
