EESchema Schematic File Version 2
LIBS:power
LIBS:device
LIBS:transistors
LIBS:conn
LIBS:linear
LIBS:regul
LIBS:74xx
LIBS:cmos4000
LIBS:adc-dac
LIBS:memory
LIBS:xilinx
LIBS:special
LIBS:microcontrollers
LIBS:dsp
LIBS:microchip
LIBS:analog_switches
LIBS:motorola
LIBS:texas
LIBS:intel
LIBS:audio
LIBS:interface
LIBS:digital-audio
LIBS:philips
LIBS:display
LIBS:cypress
LIBS:siliconi
LIBS:opto
LIBS:atmel
LIBS:contrib
LIBS:valves
LIBS:stm32
LIBS:comm
LIBS:a4988
LIBS:n_fet
LIBS:project-cache
EELAYER 24 0
EELAYER END
$Descr A4 11693 8268
encoding utf-8
Sheet 14 17
Title ""
Date "31 jan 2014"
Rev "0.01"
Comp ""
Comment1 ""
Comment2 ""
Comment3 ""
Comment4 ""
$EndDescr
Wire Wire Line
	9500 900  9600 900 
Wire Wire Line
	9600 4900 9500 4900
Wire Wire Line
	9500 4700 9600 4700
Wire Wire Line
	9600 4600 9500 4600
Wire Wire Line
	9600 4400 9500 4400
Wire Wire Line
	9500 4200 9600 4200
Connection ~ 2500 4600
Wire Wire Line
	2650 4600 2500 4600
Connection ~ 7800 7000
Wire Wire Line
	7800 7000 7800 6100
Wire Wire Line
	9500 5600 9600 5600
Wire Wire Line
	9500 5400 9600 5400
Wire Wire Line
	9500 5200 9600 5200
Wire Wire Line
	9500 5000 9600 5000
Wire Wire Line
	9500 3900 9600 3900
Wire Wire Line
	9500 3600 9600 3600
Wire Wire Line
	9500 3400 9600 3400
Wire Wire Line
	9500 3200 9600 3200
Wire Wire Line
	9500 3000 9600 3000
Wire Wire Line
	9500 2800 9600 2800
Wire Wire Line
	9500 2300 10400 2300
Wire Wire Line
	4100 3200 4000 3200
Wire Wire Line
	9500 1300 9600 1300
Wire Wire Line
	4000 4000 4100 4000
Wire Wire Line
	4000 3800 4100 3800
Wire Wire Line
	4000 3600 4100 3600
Wire Wire Line
	4000 1700 4100 1700
Wire Wire Line
	4100 3400 4000 3400
Wire Wire Line
	9500 2100 9600 2100
Wire Wire Line
	2000 4800 2000 5000
Wire Wire Line
	4100 3000 4000 3000
Wire Wire Line
	9500 2500 9600 2500
Wire Wire Line
	9500 1900 9600 1900
Wire Wire Line
	3550 5200 4100 5200
Wire Wire Line
	2200 1300 2300 1300
Connection ~ 1600 1100
Wire Wire Line
	1600 1000 1600 1500
Connection ~ 900  1500
Wire Wire Line
	1000 1500 900  1500
Wire Wire Line
	1250 1200 1250 1300
Wire Wire Line
	1250 1300 1700 1300
Connection ~ 1600 2900
Wire Wire Line
	1900 2300 2000 2300
Wire Wire Line
	2000 2300 2000 2900
Wire Wire Line
	2000 2900 1200 2900
Wire Wire Line
	4100 2900 4000 2900
Wire Wire Line
	4100 2700 2650 2700
Wire Wire Line
	9500 1000 9600 1000
Wire Wire Line
	4100 2200 4000 2200
Wire Wire Line
	4100 2000 4000 2000
Wire Wire Line
	4100 2600 4000 2600
Wire Wire Line
	9500 1600 9600 1600
Wire Wire Line
	4100 1000 4000 1000
Wire Wire Line
	4100 800  4000 800 
Wire Wire Line
	4100 1400 4000 1400
Wire Wire Line
	4100 1200 4000 1200
Connection ~ 2000 4900
Wire Wire Line
	4100 4900 3900 4900
Wire Wire Line
	2000 5500 2000 5400
Wire Wire Line
	1200 5500 2000 5500
Wire Wire Line
	1200 5500 1200 5400
Wire Wire Line
	1900 4900 2000 4900
Wire Wire Line
	2500 4400 4100 4400
Wire Wire Line
	2500 5500 2500 5400
Wire Wire Line
	2500 5500 3300 5500
Wire Wire Line
	3300 5500 3300 5400
Connection ~ 2500 4900
Wire Wire Line
	2500 4400 2500 5000
Wire Wire Line
	2500 4900 2600 4900
Wire Wire Line
	6900 6100 6900 6500
Wire Wire Line
	7600 6400 8100 6400
Connection ~ 7700 6400
Connection ~ 6900 7000
Connection ~ 6600 7000
Wire Wire Line
	7700 7000 7700 6900
Wire Wire Line
	6900 7000 6900 6900
Connection ~ 7900 6400
Wire Wire Line
	7700 6400 7700 6500
Wire Wire Line
	6000 6900 6000 7100
Wire Wire Line
	7300 6200 7300 6100
Wire Wire Line
	4600 6100 4600 7000
Wire Wire Line
	6600 6100 6600 6500
Wire Wire Line
	6000 6100 6000 6500
Wire Wire Line
	5400 6100 5400 6500
Connection ~ 5900 6200
Wire Wire Line
	6200 6200 6200 6100
Wire Wire Line
	5600 6100 5600 6200
Wire Wire Line
	5300 6200 5300 6100
Wire Wire Line
	4600 7000 4700 7000
Connection ~ 1200 6150
Wire Wire Line
	1500 6150 1200 6150
Wire Wire Line
	2700 7100 2700 7400
Connection ~ 1700 7100
Wire Wire Line
	1700 7000 1700 7300
Wire Wire Line
	1700 7300 1800 7300
Wire Wire Line
	2100 6500 2700 6500
Wire Wire Line
	1800 7100 1700 7100
Connection ~ 2700 6500
Wire Wire Line
	2700 6400 2700 6700
Wire Wire Line
	1200 6050 1200 6500
Wire Wire Line
	1200 6500 1300 6500
Wire Wire Line
	4700 6400 4600 6400
Connection ~ 6600 6400
Connection ~ 6000 6400
Connection ~ 6000 7000
Wire Wire Line
	6300 7000 6300 6900
Wire Wire Line
	5700 7000 5700 6900
Wire Wire Line
	5400 6900 5400 7000
Wire Notes Line
	3350 1800 3300 1800
Wire Notes Line
	3300 1600 3350 1600
Wire Notes Line
	3250 2200 3250 2850
Wire Notes Line
	10200 5700 10250 5700
Wire Notes Line
	10250 5700 10250 5000
Wire Notes Line
	10250 5000 10200 5000
Wire Notes Line
	3350 2800 3300 2800
Wire Notes Line
	3300 2800 3300 2900
Wire Notes Line
	3300 2900 3350 2900
Wire Notes Line
	3350 4000 3300 4000
Wire Notes Line
	3300 4000 3300 3500
Wire Notes Line
	3300 3500 3350 3500
Wire Notes Line
	3350 1900 3300 1900
Wire Notes Line
	3300 2000 3350 2000
Wire Notes Line
	3350 2100 3300 2100
Wire Notes Line
	3300 2100 3300 2300
Wire Notes Line
	3300 2300 3350 2300
Wire Notes Line
	10900 2250 10950 2250
Wire Notes Line
	10950 2250 10950 2150
Wire Notes Line
	10950 2150 10900 2150
Wire Notes Line
	3350 3300 3300 3300
Wire Notes Line
	3300 3300 3300 3400
Wire Notes Line
	3300 3400 3350 3400
Wire Notes Line
	10200 4900 10250 4900
Wire Notes Line
	10250 4900 10250 4200
Wire Notes Line
	10250 4200 10200 4200
Wire Notes Line
	10200 3300 10250 3300
Wire Notes Line
	10250 3300 10250 4000
Wire Notes Line
	10250 4000 10200 4000
Wire Notes Line
	10200 2000 10250 2000
Wire Notes Line
	10250 1800 10200 1800
Wire Notes Line
	10200 2700 10250 2700
Wire Notes Line
	10250 3200 10200 3200
Wire Notes Line
	3350 1500 3300 1500
Wire Notes Line
	3300 1500 3300 1100
Wire Notes Line
	3300 1100 3350 1100
Connection ~ 5700 6400
Connection ~ 6300 6400
Connection ~ 5700 7000
Connection ~ 6300 7000
Wire Wire Line
	6600 7000 6600 6900
Connection ~ 5400 6400
Wire Wire Line
	2400 7100 2300 7100
Connection ~ 2400 6500
Wire Wire Line
	2300 7300 2700 7300
Connection ~ 2700 7300
Wire Wire Line
	2400 6150 1900 6150
Wire Wire Line
	2400 6150 2400 7100
Connection ~ 5400 7000
Connection ~ 4600 6400
Connection ~ 5600 6200
Wire Wire Line
	6500 6200 6500 6100
Connection ~ 6200 6200
Wire Wire Line
	5700 6100 5700 6500
Wire Wire Line
	6300 6100 6300 6500
Wire Wire Line
	5900 6100 5900 6300
Wire Wire Line
	7900 6100 7900 6400
Wire Wire Line
	8000 6400 8000 6500
Wire Wire Line
	8000 7000 8000 6900
Connection ~ 7700 7000
Wire Wire Line
	5300 6400 7000 6400
Connection ~ 6900 6400
Wire Wire Line
	5300 7000 7000 7000
Wire Wire Line
	7600 7000 8000 7000
Wire Wire Line
	5300 6200 7300 6200
Connection ~ 6500 6200
Wire Wire Line
	6900 6300 7400 6300
Wire Wire Line
	7400 6300 7400 6100
Connection ~ 6900 6300
Wire Wire Line
	2900 5600 2900 5500
Connection ~ 2900 5500
Wire Wire Line
	1300 4900 1200 4900
Wire Wire Line
	1600 5600 1600 5500
Connection ~ 1600 5500
Wire Wire Line
	3200 4900 3400 4900
Connection ~ 3300 4900
Connection ~ 1200 4900
Wire Wire Line
	4100 1300 4000 1300
Wire Wire Line
	4100 1500 4000 1500
Wire Wire Line
	4100 900  4000 900 
Wire Wire Line
	9500 1700 9600 1700
Wire Wire Line
	4100 1900 4000 1900
Wire Wire Line
	4100 2100 4000 2100
Wire Wire Line
	4100 2300 4000 2300
Wire Wire Line
	9500 1100 9600 1100
Wire Wire Line
	4100 2800 4000 2800
Wire Wire Line
	4100 1100 4000 1100
Wire Wire Line
	1200 2900 1200 2800
Wire Wire Line
	1600 3000 1600 2900
Wire Wire Line
	1100 2300 1300 2300
Wire Wire Line
	1200 2200 1200 2400
Connection ~ 1200 2300
Wire Wire Line
	900  1100 1000 1100
Wire Wire Line
	900  1100 900  1600
Wire Wire Line
	1600 1500 1500 1500
Wire Wire Line
	1500 1100 1600 1100
Wire Wire Line
	1700 1700 1250 1700
Wire Wire Line
	1250 1700 1250 1600
Wire Wire Line
	2200 1700 2300 1700
Wire Wire Line
	4100 5500 3550 5500
Wire Wire Line
	9500 2000 9600 2000
Wire Wire Line
	9500 2600 9600 2600
Wire Wire Line
	9500 1800 9600 1800
Wire Wire Line
	1200 4800 1200 5000
Wire Wire Line
	4100 3300 4000 3300
Wire Wire Line
	4100 1600 4000 1600
Wire Wire Line
	4000 3500 4100 3500
Wire Wire Line
	4000 3700 4100 3700
Wire Wire Line
	4000 3900 4100 3900
Wire Wire Line
	9500 1200 9600 1200
Wire Wire Line
	4100 3100 4000 3100
Wire Wire Line
	9500 2200 10400 2200
Wire Wire Line
	9500 2700 9600 2700
Wire Wire Line
	9500 2900 9600 2900
Wire Wire Line
	9500 3100 9600 3100
Wire Wire Line
	9500 3300 9600 3300
Wire Wire Line
	9500 3500 9600 3500
Wire Wire Line
	9500 3700 9600 3700
Wire Wire Line
	9500 3800 9600 3800
Wire Wire Line
	9500 4000 9600 4000
Wire Wire Line
	9500 5100 9600 5100
Wire Wire Line
	9500 5300 9600 5300
Wire Wire Line
	9500 5500 9600 5500
Wire Wire Line
	9500 5700 9600 5700
Wire Wire Line
	3300 4600 3150 4600
Wire Wire Line
	3300 4600 3300 5000
Wire Wire Line
	9500 4300 9600 4300
Wire Wire Line
	9600 4500 9500 4500
Wire Wire Line
	9600 4800 9500 4800
Wire Wire Line
	9600 800  9500 800 
Text HLabel 4000 1000 0    60   Input ~ 0
PWM_1_3
Text HLabel 4000 900  0    60   Input ~ 0
PWM_1_2
Text HLabel 4000 800  0    60   Input ~ 0
PWM_1_1
Text HLabel 9600 4000 2    60   Input ~ 0
STP_3_MAX
Text HLabel 9600 3900 2    60   Input ~ 0
STP_3_MIN
Text HLabel 9600 3800 2    60   Input ~ 0
~STP_3_ENB
Text HLabel 9600 3700 2    60   Input ~ 0
STP_3_MS1
Text HLabel 9600 3600 2    60   Input ~ 0
STP_3_MS2
Text HLabel 9600 3500 2    60   Input ~ 0
STP_3_MS3
Text HLabel 9600 3400 2    60   Input ~ 0
STP_3_STP
Text HLabel 9600 3300 2    60   Input ~ 0
STP_3_DIR
Text HLabel 9600 3200 2    60   Input ~ 0
~STP_5_ENB
Text HLabel 9600 3100 2    60   Input ~ 0
STP_5_MS1
Text HLabel 9600 3000 2    60   Input ~ 0
STP_5_MS2
Text HLabel 9600 2900 2    60   Input ~ 0
STP_5_MS3
Text HLabel 9600 2800 2    60   Input ~ 0
STP_5_STP
Text HLabel 9600 2700 2    60   Input ~ 0
STP_5_DIR
Text HLabel 9600 1800 2    60   Input ~ 0
STP_4_STP
Text HLabel 4000 3000 0    60   Input ~ 0
STP_4_DIR
Text HLabel 9600 900  2    60   Input ~ 0
ADC_1_2
Text HLabel 9600 800  2    60   Input ~ 0
ADC_1_1
Text HLabel 9600 2600 2    60   Input ~ 0
~STP_4_ENB
Text HLabel 9600 2500 2    60   Input ~ 0
STP_4_MS1
Text HLabel 9600 2000 2    60   Input ~ 0
STP_4_MS2
Text HLabel 9600 1900 2    60   Input ~ 0
STP_4_MS3
Text HLabel 9600 5700 2    60   Input ~ 0
STP_2_MAX
Text HLabel 9600 5600 2    60   Input ~ 0
STP_2_MIN
Text HLabel 9600 5500 2    60   Input ~ 0
~STP_2_ENB
Text HLabel 9600 5400 2    60   Input ~ 0
STP_2_MS1
Text HLabel 9600 5300 2    60   Input ~ 0
STP_2_MS2
Text HLabel 9600 5200 2    60   Input ~ 0
STP_2_MS3
Text HLabel 9600 5100 2    60   Input ~ 0
STP_2_STP
Text HLabel 9600 5000 2    60   Input ~ 0
STP_2_DIR
Text HLabel 9600 4900 2    60   Input ~ 0
STP_1_MAX
Text HLabel 9600 4800 2    60   Input ~ 0
STP_1_MIN
Text HLabel 9600 4700 2    60   Input ~ 0
~STP_1_ENB
Text HLabel 9600 4600 2    60   Input ~ 0
STP_1_MS1
Text HLabel 9600 4500 2    60   Input ~ 0
STP_1_MS2
Text HLabel 9600 4400 2    60   Input ~ 0
STP_1_MS3
Text HLabel 9600 4300 2    60   Input ~ 0
STP_1_STP
Text HLabel 9600 4200 2    60   Input ~ 0
STP_1_DIR
$Comp
L R R1405
U 1 1 52E9E975
P 2900 4600
F 0 "R1405" V 2980 4600 50  0000 C CNN
F 1 "1M*" V 2900 4600 50  0000 C CNN
F 2 "SM0603" H 2900 4600 60  0001 C CNN
F 3 "" H 2900 4600 60  0001 C CNN
	1    2900 4600
	0    -1   -1   0   
$EndComp
Text Notes 950  3350 0    60   ~ 0
~Chip Quartz Capacitors:\nCL = (C1 * C2) / (C1 + C2) + Cstray\nC1 = C2 = (CL - Cstray) * 2\nCL = 20p, Cstray = 5p,\nC1 = C2 = 30p
Text Label 2300 1700 0    60   ~ 0
BOOT1
Text Label 2300 1300 0    60   ~ 0
BOOT0
Text Label 3550 5500 0    60   ~ 0
BOOT0
$Comp
L R R1402
U 1 1 52E015A9
P 1950 1700
F 0 "R1402" V 2030 1700 50  0000 C CNN
F 1 "10K" V 1950 1700 50  0000 C CNN
F 2 "SM0603" H 1950 1700 60  0001 C CNN
F 3 "" H 1950 1700 60  0001 C CNN
	1    1950 1700
	0    -1   -1   0   
$EndComp
$Comp
L GND #PWR1401
U 1 1 52E01591
P 900 1600
F 0 "#PWR1401" H 900 1600 30  0001 C CNN
F 1 "GND" H 900 1530 30  0001 C CNN
F 2 "" H 900 1600 60  0001 C CNN
F 3 "" H 900 1600 60  0001 C CNN
	1    900  1600
	1    0    0    -1  
$EndComp
$Comp
L +3.3V #PWR1403
U 1 1 52E0158E
P 1600 1000
F 0 "#PWR1403" H 1600 960 30  0001 C CNN
F 1 "+3.3V" H 1600 1110 30  0000 C CNN
F 2 "" H 1600 1000 60  0001 C CNN
F 3 "" H 1600 1000 60  0001 C CNN
	1    1600 1000
	1    0    0    -1  
$EndComp
$Comp
L JUMPER3 JP1402
U 1 1 52E0155F
P 1250 1500
F 0 "JP1402" H 1200 1600 40  0000 L CNN
F 1 "BOOT1" H 1100 1400 40  0000 C CNN
F 2 "SIL-3" H 1250 1500 60  0001 C CNN
F 3 "" H 1250 1500 60  0001 C CNN
	1    1250 1500
	1    0    0    -1  
$EndComp
$Comp
L JUMPER3 JP1401
U 1 1 52E0150D
P 1250 1100
F 0 "JP1401" H 1200 1200 40  0000 L CNN
F 1 "BOOT0" H 1100 1000 40  0000 C CNN
F 2 "SIL-3" H 1250 1100 60  0001 C CNN
F 3 "" H 1250 1100 60  0001 C CNN
	1    1250 1100
	1    0    0    -1  
$EndComp
$Comp
L R R1401
U 1 1 52E014DC
P 1950 1300
F 0 "R1401" V 2030 1300 50  0000 C CNN
F 1 "10K" V 1950 1300 50  0000 C CNN
F 2 "SM0603" H 1950 1300 60  0001 C CNN
F 3 "" H 1950 1300 60  0001 C CNN
	1    1950 1300
	0    -1   -1   0   
$EndComp
Text Label 1200 2200 1    60   ~ 0
NRST
Text Label 3550 5200 0    60   ~ 0
NRST
$Comp
L GND #PWR1404
U 1 1 52E01445
P 1600 3000
F 0 "#PWR1404" H 1600 3000 30  0001 C CNN
F 1 "GND" H 1600 2930 30  0001 C CNN
F 2 "" H 1600 3000 60  0001 C CNN
F 3 "" H 1600 3000 60  0001 C CNN
	1    1600 3000
	1    0    0    -1  
$EndComp
$Comp
L SW_PUSH SW1401
U 1 1 52E01403
P 1600 2300
F 0 "SW1401" H 1750 2410 50  0000 C CNN
F 1 "RESET" H 1600 2220 50  0000 C CNN
F 2 "SW_PUSH_SMALL" H 1600 2300 60  0001 C CNN
F 3 "" H 1600 2300 60  0001 C CNN
	1    1600 2300
	1    0    0    -1  
$EndComp
$Comp
L C C1401
U 1 1 52E0138B
P 1200 2600
F 0 "C1401" H 1250 2700 50  0000 L CNN
F 1 "100n" H 1250 2500 50  0000 L CNN
F 2 "SM0603" H 1200 2600 60  0001 C CNN
F 3 "" H 1200 2600 60  0001 C CNN
	1    1200 2600
	-1   0    0    -1  
$EndComp
Text Label 2000 4800 1    60   ~ 0
RTC_QOUT
Text Label 1200 4800 1    60   ~ 0
RTC_QIN
$Comp
L GND #PWR1405
U 1 1 52E007FB
P 1600 5600
F 0 "#PWR1405" H 1600 5600 30  0001 C CNN
F 1 "GND" H 1600 5530 30  0001 C CNN
F 2 "" H 1600 5600 60  0001 C CNN
F 3 "" H 1600 5600 60  0001 C CNN
	1    1600 5600
	1    0    0    -1  
$EndComp
$Comp
L C C1403
U 1 1 52E007EB
P 2000 5200
F 0 "C1403" H 2050 5300 50  0000 L CNN
F 1 "15p*" H 2050 5100 50  0000 L CNN
F 2 "SM0603" H 2000 5200 60  0001 C CNN
F 3 "" H 2000 5200 60  0001 C CNN
	1    2000 5200
	-1   0    0    -1  
$EndComp
$Comp
L C C1402
U 1 1 52E007E2
P 1200 5200
F 0 "C1402" H 1250 5300 50  0000 L CNN
F 1 "15p*" H 1250 5100 50  0000 L CNN
F 2 "SM0603" H 1200 5200 60  0001 C CNN
F 3 "" H 1200 5200 60  0001 C CNN
	1    1200 5200
	-1   0    0    -1  
$EndComp
$Comp
L GND #PWR1408
U 1 1 52E007A7
P 2900 5600
F 0 "#PWR1408" H 2900 5600 30  0001 C CNN
F 1 "GND" H 2900 5530 30  0001 C CNN
F 2 "" H 2900 5600 60  0001 C CNN
F 3 "" H 2900 5600 60  0001 C CNN
	1    2900 5600
	1    0    0    -1  
$EndComp
$Comp
L C C1406
U 1 1 52E0078A
P 3300 5200
F 0 "C1406" H 3350 5300 50  0000 L CNN
F 1 "30p" H 3350 5100 50  0000 L CNN
F 2 "SM0603" H 3300 5200 60  0001 C CNN
F 3 "" H 3300 5200 60  0001 C CNN
	1    3300 5200
	-1   0    0    -1  
$EndComp
$Comp
L C C1404
U 1 1 52E00772
P 2500 5200
F 0 "C1404" H 2550 5300 50  0000 L CNN
F 1 "30p" H 2550 5100 50  0000 L CNN
F 2 "SM0603" H 2500 5200 60  0001 C CNN
F 3 "" H 2500 5200 60  0001 C CNN
	1    2500 5200
	-1   0    0    -1  
$EndComp
$Comp
L R R1406
U 1 1 52E00758
P 3650 4900
F 0 "R1406" V 3730 4900 50  0000 C CNN
F 1 "180*(0)" V 3650 4900 50  0000 C CNN
F 2 "SM0603" H 3650 4900 60  0001 C CNN
F 3 "" H 3650 4900 60  0001 C CNN
	1    3650 4900
	0    -1   -1   0   
$EndComp
$Comp
L INDUCTOR L1402
U 1 1 52E004EF
P 7300 7000
F 0 "L1402" V 7250 7000 40  0000 C CNN
F 1 "470R*(0R)" V 7400 7000 40  0000 C CNN
F 2 "SM1206" H 7300 7000 60  0001 C CNN
F 3 "" H 7300 7000 60  0001 C CNN
	1    7300 7000
	0    1    1    0   
$EndComp
$Comp
L C C1414
U 1 1 52E003F6
P 8000 6700
F 0 "C1414" H 8050 6800 50  0000 L CNN
F 1 "1u" H 8050 6600 50  0000 L CNN
F 2 "SM0805" H 8000 6700 60  0001 C CNN
F 3 "" H 8000 6700 60  0001 C CNN
	1    8000 6700
	-1   0    0    -1  
$EndComp
$Comp
L C C1413
U 1 1 52E003F4
P 7700 6700
F 0 "C1413" H 7750 6800 50  0000 L CNN
F 1 "10n" H 7750 6600 50  0000 L CNN
F 2 "SM0603" H 7700 6700 60  0001 C CNN
F 3 "" H 7700 6700 60  0001 C CNN
	1    7700 6700
	-1   0    0    -1  
$EndComp
$Comp
L GND #PWR1409
U 1 1 52E00380
P 5900 6300
F 0 "#PWR1409" H 5900 6300 30  0001 C CNN
F 1 "GND" H 5900 6230 30  0001 C CNN
F 2 "" H 5900 6300 60  0001 C CNN
F 3 "" H 5900 6300 60  0001 C CNN
	1    5900 6300
	1    0    0    -1  
$EndComp
$Comp
L INDUCTOR L1401
U 1 1 52DFFF07
P 7300 6400
F 0 "L1401" V 7250 6400 40  0000 C CNN
F 1 "470R*(opt)" V 7400 6400 40  0000 C CNN
F 2 "SM1206" H 7300 6400 60  0001 C CNN
F 3 "" H 7300 6400 60  0001 C CNN
	1    7300 6400
	0    1    1    0   
$EndComp
$Comp
L DIODESCH D1401
U 1 1 52DFF6F4
P 1700 6150
F 0 "D1401" H 1700 6250 40  0000 C CNN
F 1 "SS14" H 1700 6050 40  0000 C CNN
F 2 "SM0805" H 1700 6150 60  0001 C CNN
F 3 "" H 1700 6150 60  0001 C CNN
	1    1700 6150
	-1   0    0    -1  
$EndComp
$Comp
L GND #PWR1407
U 1 1 52DFF271
P 2700 7400
F 0 "#PWR1407" H 2700 7400 30  0001 C CNN
F 1 "GND" H 2700 7330 30  0001 C CNN
F 2 "" H 2700 7400 60  0001 C CNN
F 3 "" H 2700 7400 60  0001 C CNN
	1    2700 7400
	1    0    0    -1  
$EndComp
$Comp
L R R1404
U 1 1 52DFF24B
P 2050 7300
F 0 "R1404" V 2130 7300 50  0000 C CNN
F 1 "390*" V 2050 7300 50  0000 C CNN
F 2 "SM0603" H 2050 7300 60  0001 C CNN
F 3 "" H 2050 7300 60  0001 C CNN
	1    2050 7300
	0    -1   -1   0   
$EndComp
$Comp
L +3.3V #PWR1406
U 1 1 52DFF222
P 2700 6400
F 0 "#PWR1406" H 2700 6360 30  0001 C CNN
F 1 "+3.3V" H 2700 6510 30  0000 C CNN
F 2 "" H 2700 6400 60  0001 C CNN
F 3 "" H 2700 6400 60  0001 C CNN
	1    2700 6400
	1    0    0    -1  
$EndComp
$Comp
L +5V #PWR1402
U 1 1 52DFF21A
P 1200 6050
F 0 "#PWR1402" H 1200 6140 20  0001 C CNN
F 1 "+5V" H 1200 6140 30  0000 C CNN
F 2 "" H 1200 6050 60  0001 C CNN
F 3 "" H 1200 6050 60  0001 C CNN
	1    1200 6050
	1    0    0    -1  
$EndComp
$Comp
L +3.3V #PWR1411
U 1 1 52DFF1FD
P 6900 6100
F 0 "#PWR1411" H 6900 6060 30  0001 C CNN
F 1 "+3.3V" H 6900 6210 30  0000 C CNN
F 2 "" H 6900 6100 60  0001 C CNN
F 3 "" H 6900 6100 60  0001 C CNN
	1    6900 6100
	1    0    0    -1  
$EndComp
$Comp
L R R1403
U 1 1 52DFF1AF
P 2050 7100
F 0 "R1403" V 2130 7100 50  0000 C CNN
F 1 "240*" V 2050 7100 50  0000 C CNN
F 2 "SM0603" H 2050 7100 60  0001 C CNN
F 3 "" H 2050 7100 60  0001 C CNN
	1    2050 7100
	0    1    -1   0   
$EndComp
$Comp
L CP1 C1405
U 1 1 52DFF036
P 2700 6900
F 0 "C1405" H 2750 7000 50  0000 L CNN
F 1 "100u 6.3V" H 2500 6800 50  0000 L CNN
F 2 "SMDHD/VF" H 2700 6900 60  0001 C CNN
F 3 "" H 2700 6900 60  0001 C CNN
	1    2700 6900
	-1   0    0    -1  
$EndComp
$Comp
L JUMPER JP1403
U 1 1 52DFE728
P 5000 6400
F 0 "JP1403" H 5000 6550 60  0000 C CNN
F 1 "NO_BAT" H 5000 6320 40  0000 C CNN
F 2 "SIL-2" H 5000 6400 60  0001 C CNN
F 3 "" H 5000 6400 60  0001 C CNN
	1    5000 6400
	1    0    0    -1  
$EndComp
$Comp
L LM317_SOT223 U1401
U 1 1 52DFE162
P 1700 6650
F 0 "U1401" H 1700 6950 60  0000 C CNN
F 1 "LM1117" H 1500 6650 60  0000 L CNN
F 2 "SOT223" H 1700 6650 60  0001 C CNN
F 3 "" H 1700 6650 60  0001 C CNN
	1    1700 6650
	1    0    0    -1  
$EndComp
$Comp
L BATTERY BT1401
U 1 1 52DFDFE7
P 5000 7000
F 0 "BT1401" H 5000 7200 50  0000 C CNN
F 1 "3V3*(opt)" H 5000 6810 50  0000 C CNN
F 2 "" H 5000 7000 60  0001 C CNN
F 3 "" H 5000 7000 60  0001 C CNN
	1    5000 7000
	1    0    0    -1  
$EndComp
$Comp
L GND #PWR1410
U 1 1 52DFDF76
P 6000 7100
F 0 "#PWR1410" H 6000 7100 30  0001 C CNN
F 1 "GND" H 6000 7030 30  0001 C CNN
F 2 "" H 6000 7100 60  0001 C CNN
F 3 "" H 6000 7100 60  0001 C CNN
	1    6000 7100
	1    0    0    -1  
$EndComp
$Comp
L C C1411
U 1 1 52DFDDEB
P 6600 6700
F 0 "C1411" H 6650 6800 50  0000 L CNN
F 1 "100n" H 6650 6600 50  0000 L CNN
F 2 "SM0603" H 6600 6700 60  0001 C CNN
F 3 "" H 6600 6700 60  0001 C CNN
	1    6600 6700
	-1   0    0    -1  
$EndComp
$Comp
L C C1412
U 1 1 52DFDDB5
P 6900 6700
F 0 "C1412" H 6950 6800 50  0000 L CNN
F 1 "100n" H 6950 6600 50  0000 L CNN
F 2 "SM0603" H 6900 6700 60  0001 C CNN
F 3 "" H 6900 6700 60  0001 C CNN
	1    6900 6700
	-1   0    0    -1  
$EndComp
$Comp
L C C1410
U 1 1 52DFDDB3
P 6300 6700
F 0 "C1410" H 6350 6800 50  0000 L CNN
F 1 "100n" H 6350 6600 50  0000 L CNN
F 2 "SM0603" H 6300 6700 60  0001 C CNN
F 3 "" H 6300 6700 60  0001 C CNN
	1    6300 6700
	-1   0    0    -1  
$EndComp
$Comp
L C C1409
U 1 1 52DFDDAE
P 6000 6700
F 0 "C1409" H 6050 6800 50  0000 L CNN
F 1 "100n" H 6050 6600 50  0000 L CNN
F 2 "SM0603" H 6000 6700 60  0001 C CNN
F 3 "" H 6000 6700 60  0001 C CNN
	1    6000 6700
	-1   0    0    -1  
$EndComp
$Comp
L C C1408
U 1 1 52DFDDA9
P 5700 6700
F 0 "C1408" H 5750 6800 50  0000 L CNN
F 1 "100n" H 5750 6600 50  0000 L CNN
F 2 "SM0603" H 5700 6700 60  0001 C CNN
F 3 "" H 5700 6700 60  0001 C CNN
	1    5700 6700
	-1   0    0    -1  
$EndComp
$Comp
L C C1407
U 1 1 52DFDD7E
P 5400 6700
F 0 "C1407" H 5450 6800 50  0000 L CNN
F 1 "100n" H 5450 6600 50  0000 L CNN
F 2 "SM0603" H 5400 6700 60  0001 C CNN
F 3 "" H 5400 6700 60  0001 C CNN
	1    5400 6700
	-1   0    0    -1  
$EndComp
$Comp
L STM32F103VBT6 D1402
U 1 1 52BE8A00
P 6800 3250
F 0 "D1402" H 6800 5900 60  0000 C CNN
F 1 "STM32F103VBT6" H 6800 1600 60  0000 C CNN
F 2 "VQFP100" H 6800 3250 60  0001 C CNN
F 3 "" H 6800 3250 60  0001 C CNN
	1    6800 3250
	1    0    0    -1  
$EndComp
Text Label 2650 2700 0    60   ~ 0
BOOT1
Text Notes 3000 3400 0    60   ~ 0
I2C_1
Text Notes 10350 2950 0    60   ~ 0
Stepper 5
Text Notes 10350 1950 0    60   ~ 0
Stepper 4
Text Notes 2950 1350 0    60   ~ 0
SDCard
Text Notes 10350 3700 0    60   ~ 0
Stepper 3
Text Notes 10350 5400 0    60   ~ 0
Stepper 2
Text Notes 10350 4600 0    60   ~ 0
Stepper 1
Text Notes 11000 2250 0    60   ~ 0
RTC
Text Notes 3000 2600 0    60   ~ 0
JTAG
Text Notes 3000 3800 0    60   ~ 0
SPI_1
Text Notes 3050 2000 0    60   ~ 0
USB
Text Label 10400 2300 0    60   ~ 0
RTC_QOUT
Text Label 10400 2200 0    60   ~ 0
RTC_QIN
Text HLabel 4000 1100 0    60   Input ~ 0
~SD_INS
Text HLabel 4000 1200 0    60   Input ~ 0
SD_CS
Text HLabel 4000 1300 0    60   Input ~ 0
SD_SCK
Text HLabel 4000 1400 0    60   Input ~ 0
SD_DO
Text HLabel 4000 1500 0    60   Input ~ 0
SD_DI
Text HLabel 4000 2600 0    60   Input ~ 0
USB_DISC
Text HLabel 4000 1900 0    60   Input ~ 0
USB_DM
Text HLabel 4000 2000 0    60   Input ~ 0
USB_DP
Text HLabel 4000 2100 0    60   Input ~ 0
JTMS/SWDIO
Text HLabel 4000 2200 0    60   Input ~ 0
JTCK/SWCLK
Text HLabel 4000 2300 0    60   Input ~ 0
JTDI
Text HLabel 9600 1000 2    60   Input ~ 0
ADC_1_3
Text HLabel 9600 1100 2    60   Input ~ 0
ADC_2_1
Text HLabel 4000 2800 0    60   Input ~ 0
JTDO
Text HLabel 4000 2900 0    60   Input ~ 0
NJTRST
Text HLabel 9600 2100 2    60   Input ~ 0
SD_EJ
Text HLabel 4000 3300 0    60   Input ~ 0
I2C1_SCL
Text HLabel 4000 3400 0    60   Input ~ 0
I2C1_SDA
Text HLabel 4000 1600 0    60   Input ~ 0
PWM_2_1
Text HLabel 4000 1700 0    60   Input ~ 0
PWM_2_2
Text HLabel 4000 3500 0    60   Input ~ 0
SPI_1_CS1
Text HLabel 4000 3600 0    60   Input ~ 0
SPI_1_CS2
Text HLabel 4000 3700 0    60   Input ~ 0
SPI_1_CS3
Text HLabel 4000 3800 0    60   Input ~ 0
SPI_1_SCK
Text HLabel 4000 3900 0    60   Input ~ 0
SPI_1_MISO
Text HLabel 4000 4000 0    60   Input ~ 0
SPI_1_MOSI
Text HLabel 9600 1200 2    60   Input ~ 0
~LED_1
Text HLabel 9600 1300 2    60   Input ~ 0
~LED_2
Text HLabel 4000 3100 0    60   Input ~ 0
~ATX_PSON
Text HLabel 4000 3200 0    60   Input ~ 0
~ATX_PWOK
Text HLabel 4000 2500 0    60   Input ~ 0
~LED_3
Wire Wire Line
	4000 2500 4100 2500
Text HLabel 9600 1600 2    60   Input ~ 0
ICU_1_3
Text HLabel 9600 1700 2    60   Input ~ 0
ICU_1_4
Text Notes 10350 1600 0    60   ~ 0
ICU_1
Text Notes 2950 1750 0    60   ~ 0
PWM_2
Wire Notes Line
	3350 800  3300 800 
Wire Notes Line
	3300 800  3300 1000
Wire Notes Line
	3300 1000 3350 1000
Text Notes 2950 950  0    60   ~ 0
PWM_1
Text HLabel 1100 2300 0    60   Input ~ 0
NRST
$Comp
L CRYSTAL X1401
U 1 1 52EEDB7B
P 1600 4900
F 0 "X1401" H 1600 5050 60  0000 C CNN
F 1 "32768Hz*" H 1600 4750 60  0000 C CNN
F 2 "QMONTRE" H 1600 4900 60  0001 C CNN
F 3 "" H 1600 4900 60  0000 C CNN
	1    1600 4900
	1    0    0    -1  
$EndComp
$Comp
L CRYSTAL X1402
U 1 1 52EEDB9E
P 2900 4900
F 0 "X1402" H 2900 5050 60  0000 C CNN
F 1 "8MHz" H 2900 4750 60  0000 C CNN
F 2 "QMONTRE" H 2900 4900 60  0001 C CNN
F 3 "" H 2900 4900 60  0000 C CNN
	1    2900 4900
	1    0    0    -1  
$EndComp
$Comp
L VAA #PWR1412
U 1 1 52F2BBAF
P 8100 6100
F 0 "#PWR1412" H 8100 6160 30  0001 C CNN
F 1 "VAA" H 8100 6210 30  0000 C CNN
F 2 "" H 8100 6100 60  0000 C CNN
F 3 "" H 8100 6100 60  0000 C CNN
	1    8100 6100
	1    0    0    -1  
$EndComp
Wire Wire Line
	8100 6400 8100 6100
Connection ~ 8000 6400
Wire Notes Line
	3350 3100 3300 3100
Wire Notes Line
	3300 3100 3300 3200
Wire Notes Line
	3300 3200 3350 3200
Text Notes 2650 3200 0    60   ~ 0
ATX/USART_1
Wire Wire Line
	9500 1400 9600 1400
Wire Wire Line
	9500 1500 9600 1500
Text HLabel 9600 1400 2    60   Input ~ 0
ICU_1_1
Text HLabel 9600 1500 2    60   Input ~ 0
ICU_1_2
Wire Notes Line
	10250 2000 10250 1800
Wire Notes Line
	10200 1400 10250 1400
Wire Notes Line
	10250 1400 10250 1700
Wire Notes Line
	10250 1700 10200 1700
Text Notes 10350 950  0    60   ~ 0
ADC_1
Text Notes 10350 1150 0    60   ~ 0
ADC_2
Wire Notes Line
	10200 800  10250 800 
Wire Notes Line
	10250 800  10250 1000
Wire Notes Line
	10250 1000 10200 1000
Text HLabel 4000 1800 0    60   Input ~ 0
PWM_2_3
Wire Wire Line
	4100 1800 4000 1800
Wire Notes Line
	3300 1900 3300 2000
Wire Notes Line
	3300 1800 3300 1600
Wire Notes Line
	10250 2700 10250 3200
Wire Notes Line
	10200 2500 10250 2500
Wire Notes Line
	10250 2500 10250 2600
Wire Notes Line
	10250 2600 10200 2600
Wire Notes Line
	10250 2550 10300 2550
Wire Notes Line
	10300 2550 10300 1900
Wire Notes Line
	10300 1900 10250 1900
Wire Notes Line
	10200 1100 10250 1100
Wire Notes Line
	10200 1200 10250 1200
Wire Notes Line
	10250 1200 10250 1300
Wire Notes Line
	10250 1300 10200 1300
Wire Notes Line
	3250 2850 3300 2850
Wire Notes Line
	3300 2200 3250 2200
Wire Notes Line
	3350 3000 3300 3000
$EndSCHEMATC
