EESchema Schematic File Version 2
LIBS:power
LIBS:device
LIBS:transistors
LIBS:conn
LIBS:linear
LIBS:regul
LIBS:74xx
LIBS:cmos4000
LIBS:adc-dac
LIBS:memory
LIBS:xilinx
LIBS:special
LIBS:microcontrollers
LIBS:dsp
LIBS:microchip
LIBS:analog_switches
LIBS:motorola
LIBS:texas
LIBS:intel
LIBS:audio
LIBS:interface
LIBS:digital-audio
LIBS:philips
LIBS:display
LIBS:cypress
LIBS:siliconi
LIBS:opto
LIBS:atmel
LIBS:contrib
LIBS:valves
LIBS:stm32
LIBS:comm
LIBS:a4988
LIBS:n_fet
LIBS:project-cache
EELAYER 24 0
EELAYER END
$Descr A4 11693 8268
encoding utf-8
Sheet 1 17
Title "MTJ UCH"
Date "31 jan 2014"
Rev "0.01"
Comp "UCX"
Comment1 ""
Comment2 ""
Comment3 ""
Comment4 ""
$EndDescr
Text Label 10000 4700 0    60   ~ 0
5V 0.5A
$Comp
L C C106
U 1 1 52EB222C
P 10000 5000
F 0 "C106" H 10050 5100 50  0000 L CNN
F 1 "100n" H 10050 4900 50  0000 L CNN
F 2 "SM0603" H 10000 5000 60  0001 C CNN
F 3 "" H 10000 5000 60  0001 C CNN
	1    10000 5000
	-1   0    0    -1  
$EndComp
$Comp
L GND #PWR108
U 1 1 52EB21C6
P 7400 5600
F 0 "#PWR108" H 7400 5600 30  0001 C CNN
F 1 "GND" H 7400 5530 30  0001 C CNN
F 2 "" H 7400 5600 60  0001 C CNN
F 3 "" H 7400 5600 60  0001 C CNN
	1    7400 5600
	1    0    0    -1  
$EndComp
$Comp
L CONN_2 P103
U 1 1 52EB2189
P 7850 5400
F 0 "P103" V 7800 5400 40  0000 C CNN
F 1 "PWR_MOT" V 7900 5400 40  0000 C CNN
F 2 "AK300-2" H 7850 5400 60  0001 C CNN
F 3 "" H 7850 5400 60  0001 C CNN
	1    7850 5400
	1    0    0    1   
$EndComp
$Comp
L CONN_3 K108
U 1 1 52EB1E55
P 7850 3900
F 0 "K108" V 7800 3900 50  0000 C CNN
F 1 "MAX_3" V 7900 3900 40  0000 C CNN
F 2 "SIL-3" H 7850 3900 60  0001 C CNN
F 3 "" H 7850 3900 60  0001 C CNN
	1    7850 3900
	1    0    0    1   
$EndComp
$Comp
L CONN_3 K107
U 1 1 52EB1E54
P 7850 3500
F 0 "K107" V 7800 3500 50  0000 C CNN
F 1 "MIN_3" V 7900 3500 40  0000 C CNN
F 2 "SIL-3" H 7850 3500 60  0001 C CNN
F 3 "" H 7850 3500 60  0001 C CNN
	1    7850 3500
	1    0    0    1   
$EndComp
$Comp
L CONN_3 K105
U 1 1 52EB1E47
P 7850 2400
F 0 "K105" V 7800 2400 50  0000 C CNN
F 1 "MIN_2" V 7900 2400 40  0000 C CNN
F 2 "SIL-3" H 7850 2400 60  0001 C CNN
F 3 "" H 7850 2400 60  0001 C CNN
	1    7850 2400
	1    0    0    1   
$EndComp
$Comp
L CONN_3 K106
U 1 1 52EB1E46
P 7850 2800
F 0 "K106" V 7800 2800 50  0000 C CNN
F 1 "MAX_2" V 7900 2800 40  0000 C CNN
F 2 "SIL-3" H 7850 2800 60  0001 C CNN
F 3 "" H 7850 2800 60  0001 C CNN
	1    7850 2800
	1    0    0    1   
$EndComp
$Comp
L +3.3V #PWR106
U 1 1 52EB1DD8
P 7300 1100
F 0 "#PWR106" H 7300 1060 30  0001 C CNN
F 1 "+3.3V" H 7300 1210 30  0000 C CNN
F 2 "" H 7300 1100 60  0001 C CNN
F 3 "" H 7300 1100 60  0001 C CNN
	1    7300 1100
	1    0    0    -1  
$EndComp
$Comp
L GND #PWR107
U 1 1 52EB1DC5
P 7400 4100
F 0 "#PWR107" H 7400 4100 30  0001 C CNN
F 1 "GND" H 7400 4030 30  0001 C CNN
F 2 "" H 7400 4100 60  0001 C CNN
F 3 "" H 7400 4100 60  0001 C CNN
	1    7400 4100
	1    0    0    -1  
$EndComp
$Comp
L CONN_3 K104
U 1 1 52EB1D7F
P 7850 1700
F 0 "K104" V 7800 1700 50  0000 C CNN
F 1 "MAX_1" V 7900 1700 40  0000 C CNN
F 2 "SIL-3" H 7850 1700 60  0001 C CNN
F 3 "" H 7850 1700 60  0001 C CNN
	1    7850 1700
	1    0    0    1   
$EndComp
$Comp
L CONN_3 K103
U 1 1 52EB1D61
P 7850 1300
F 0 "K103" V 7800 1300 50  0000 C CNN
F 1 "MIN_1" V 7900 1300 40  0000 C CNN
F 2 "SIL-3" H 7850 1300 60  0001 C CNN
F 3 "" H 7850 1300 60  0001 C CNN
	1    7850 1300
	1    0    0    1   
$EndComp
$Comp
L GND #PWR103
U 1 1 52EB1AC1
P 2200 6200
F 0 "#PWR103" H 2200 6200 30  0001 C CNN
F 1 "GND" H 2200 6130 30  0001 C CNN
F 2 "" H 2200 6200 60  0001 C CNN
F 3 "" H 2200 6200 60  0001 C CNN
	1    2200 6200
	1    0    0    -1  
$EndComp
$Comp
L CONN_2 P102
U 1 1 52EB1AAE
P 1750 6000
F 0 "P102" V 1700 6000 40  0000 C CNN
F 1 "PWR_H2" V 1800 6000 40  0000 C CNN
F 2 "AK300-2" H 1750 6000 60  0001 C CNN
F 3 "" H 1750 6000 60  0001 C CNN
	1    1750 6000
	-1   0    0    1   
$EndComp
$Comp
L CONN_2 P101
U 1 1 52EB1A91
P 1750 5600
F 0 "P101" V 1700 5600 40  0000 C CNN
F 1 "PWR_H1" V 1800 5600 40  0000 C CNN
F 2 "AK300-2" H 1750 5600 60  0001 C CNN
F 3 "" H 1750 5600 60  0001 C CNN
	1    1750 5600
	-1   0    0    1   
$EndComp
$Comp
L C C102
U 1 1 52E9ED4E
P 8700 5400
F 0 "C102" H 8750 5500 50  0000 L CNN
F 1 "100n" H 8750 5300 50  0000 L CNN
F 2 "SM0603" H 8700 5400 60  0001 C CNN
F 3 "" H 8700 5400 60  0001 C CNN
	1    8700 5400
	-1   0    0    -1  
$EndComp
$Comp
L DIODESCH D102
U 1 1 52E9ED23
P 9200 4700
F 0 "D102" H 9200 4800 40  0000 C CNN
F 1 "SS14" H 9200 4600 40  0000 C CNN
F 2 "SM0805" H 9200 4700 60  0001 C CNN
F 3 "" H 9200 4700 60  0001 C CNN
	1    9200 4700
	-1   0    0    -1  
$EndComp
$Comp
L CP1 C104
U 1 1 52E9EC7D
P 9700 5400
F 0 "C104" H 9750 5500 50  0000 L CNN
F 1 "10u 16V" H 9550 5300 50  0000 L CNN
F 2 "SMDHD/VF" H 9700 5400 60  0001 C CNN
F 3 "" H 9700 5400 60  0001 C CNN
	1    9700 5400
	-1   0    0    -1  
$EndComp
$Comp
L +5V #PWR112
U 1 1 52E9EC3E
P 9700 4600
F 0 "#PWR112" H 9700 4690 20  0001 C CNN
F 1 "+5V" H 9700 4690 30  0000 C CNN
F 2 "" H 9700 4600 60  0001 C CNN
F 3 "" H 9700 4600 60  0001 C CNN
	1    9700 4600
	1    0    0    -1  
$EndComp
$Comp
L GND #PWR110
U 1 1 52E9EC35
P 9200 5800
F 0 "#PWR110" H 9200 5800 30  0001 C CNN
F 1 "GND" H 9200 5730 30  0001 C CNN
F 2 "" H 9200 5800 60  0001 C CNN
F 3 "" H 9200 5800 60  0001 C CNN
	1    9200 5800
	1    0    0    -1  
$EndComp
$Sheet
S 4000 800  1400 6700
U 52E0A534
F0 "Processor" 60
F1 "processor.sch" 60
F2 "STP_1_MS1" I R 5400 1000 60 
F3 "STP_1_MS2" I R 5400 1100 60 
F4 "STP_1_MS3" I R 5400 1200 60 
F5 "STP_1_STP" I R 5400 1300 60 
F6 "STP_1_DIR" I R 5400 1400 60 
F7 "~STP_1_ENB" I R 5400 900 60 
F8 "STP_3_MAX" I R 5400 3900 60 
F9 "STP_3_MIN" I R 5400 3800 60 
F10 "~STP_3_ENB" I R 5400 3100 60 
F11 "STP_3_MS1" I R 5400 3200 60 
F12 "STP_3_MS2" I R 5400 3300 60 
F13 "STP_3_MS3" I R 5400 3400 60 
F14 "STP_3_STP" I R 5400 3500 60 
F15 "STP_3_DIR" I R 5400 3600 60 
F16 "~STP_5_ENB" I R 5400 5300 60 
F17 "STP_5_MS1" I R 5400 5400 60 
F18 "STP_5_MS2" I R 5400 5500 60 
F19 "STP_5_MS3" I R 5400 5600 60 
F20 "STP_5_STP" I R 5400 5700 60 
F21 "STP_5_DIR" I R 5400 5800 60 
F22 "STP_4_STP" I R 5400 4600 60 
F23 "STP_4_DIR" I R 5400 4700 60 
F24 "~STP_4_ENB" I R 5400 4200 60 
F25 "STP_4_MS1" I R 5400 4300 60 
F26 "STP_4_MS2" I R 5400 4400 60 
F27 "STP_4_MS3" I R 5400 4500 60 
F28 "STP_2_MAX" I R 5400 2800 60 
F29 "STP_2_MIN" I R 5400 2700 60 
F30 "~STP_2_ENB" I R 5400 2000 60 
F31 "STP_2_MS1" I R 5400 2100 60 
F32 "STP_2_MS2" I R 5400 2200 60 
F33 "STP_2_MS3" I R 5400 2300 60 
F34 "STP_2_STP" I R 5400 2400 60 
F35 "STP_2_DIR" I R 5400 2500 60 
F36 "PWM_1_3" I L 4000 6300 60 
F37 "PWM_1_2" I L 4000 5900 60 
F38 "PWM_1_1" I L 4000 5500 60 
F39 "ADC_1_2" I L 4000 4700 60 
F40 "ADC_1_1" I L 4000 4300 60 
F41 "STP_1_MAX" I R 5400 1700 60 
F42 "STP_1_MIN" I R 5400 1600 60 
F43 "~SD_INS" I L 4000 900 60 
F44 "SD_CS" I L 4000 1100 60 
F45 "SD_SCK" I L 4000 1200 60 
F46 "SD_DO" I L 4000 1300 60 
F47 "SD_DI" I L 4000 1400 60 
F48 "USB_DISC" I L 4000 1600 60 
F49 "USB_DM" I L 4000 1700 60 
F50 "USB_DP" I L 4000 1800 60 
F51 "JTMS/SWDIO" I L 4000 2800 60 
F52 "JTCK/SWCLK" I L 4000 2900 60 
F53 "JTDI" I L 4000 3000 60 
F54 "ADC_1_3" I L 4000 5100 60 
F55 "JTDO" I L 4000 3100 60 
F56 "NJTRST" I L 4000 2700 60 
F57 "SD_EJ" I L 4000 1000 60 
F58 "I2C1_SCL" I L 4000 3400 60 
F59 "I2C1_SDA" I L 4000 3500 60 
F60 "PWM_2_1" I L 4000 6700 60 
F61 "PWM_2_2" I L 4000 7200 60 
F62 "SPI_1_CS1" I L 4000 2000 60 
F63 "SPI_1_CS2" I L 4000 2100 60 
F64 "SPI_1_SCK" I L 4000 2300 60 
F65 "SPI_1_MISO" I L 4000 2400 60 
F66 "SPI_1_MOSI" I L 4000 2500 60 
F67 "~LED_1" I L 4000 3700 60 
F68 "~LED_2" I L 4000 3800 60 
F69 "~LED_3" I L 4000 3900 60 
F70 "~ATX_PSON" I R 5400 6200 60 
F71 "~ATX_PWOK" I R 5400 6300 60 
F72 "ICU_1_1" I L 4000 6800 60 
F73 "ICU_1_2" I L 4000 7300 60 
F74 "NRST" I L 4000 3200 60 
F75 "ADC_2_1" I L 4000 4100 60 
F76 "SPI_1_CS3" I L 4000 2200 60 
F77 "ICU_1_3" I R 5400 6800 60 
F78 "ICU_1_4" I R 5400 7300 60 
F79 "PWM_2_3" I R 5400 6700 60 
$EndSheet
$Sheet
S 2500 800  1100 3200
U 52E0A5A6
F0 "Interfaces" 60
F1 "interfaces.sch" 60
F2 "~LED_1" I R 3600 3700 60 
F3 "~LED_2" I R 3600 3800 60 
F4 "~LED_3" I R 3600 3900 60 
F5 "~SD_INS" I R 3600 900 60 
F6 "SD_EJ" I R 3600 1000 60 
F7 "SD_DO" I R 3600 1300 60 
F8 "SD_SCK" I R 3600 1200 60 
F9 "SD_DI" I R 3600 1400 60 
F10 "SD_CS" I R 3600 1100 60 
F11 "USB_DP" I R 3600 1800 60 
F12 "USB_DM" I R 3600 1700 60 
F13 "USB_DISC" I R 3600 1600 60 
F14 "I2C_1_SCL" I R 3600 3400 60 
F15 "I2C_1_SDA" I R 3600 3500 60 
F16 "NJTRST" I R 3600 2700 60 
F17 "JTDI" I R 3600 3000 60 
F18 "JTMS/SWDIO" I R 3600 2800 60 
F19 "JTCK/SWCLK" I R 3600 2900 60 
F20 "JTDO" I R 3600 3100 60 
F21 "NRST" I R 3600 3200 60 
F22 "SPI_1_CS1" I R 3600 2000 60 
F23 "SPI_1_CS2" I R 3600 2100 60 
F24 "SPI_1_CS3" I R 3600 2200 60 
F25 "SPI_1_SCK" I R 3600 2300 60 
F26 "SPI_1_MISO" I R 3600 2400 60 
F27 "SPI_1_MOSI" I R 3600 2500 60 
$EndSheet
$Sheet
S 5800 800  1100 700 
U 52E0BE52
F0 "Stepper1" 60
F1 "stepper.sch" 60
F2 "DIR" I L 5800 1400 60 
F3 "STP" I L 5800 1300 60 
F4 "MS3" I L 5800 1200 60 
F5 "MS2" I L 5800 1100 60 
F6 "MS1" I L 5800 1000 60 
F7 "~ENB" I L 5800 900 60 
F8 "VMM" I R 6900 900 60 
$EndSheet
$Sheet
S 5800 1900 1100 700 
U 52E0FC36
F0 "Stepper2" 60
F1 "stepper.sch" 60
F2 "DIR" I L 5800 2500 60 
F3 "STP" I L 5800 2400 60 
F4 "MS3" I L 5800 2300 60 
F5 "MS2" I L 5800 2200 60 
F6 "MS1" I L 5800 2100 60 
F7 "~ENB" I L 5800 2000 60 
F8 "VMM" I R 6900 2000 60 
$EndSheet
$Sheet
S 5800 3000 1100 700 
U 52E10426
F0 "Stepper3" 60
F1 "stepper.sch" 60
F2 "DIR" I L 5800 3600 60 
F3 "STP" I L 5800 3500 60 
F4 "MS3" I L 5800 3400 60 
F5 "MS2" I L 5800 3300 60 
F6 "MS1" I L 5800 3200 60 
F7 "~ENB" I L 5800 3100 60 
F8 "VMM" I R 6900 3100 60 
$EndSheet
$Sheet
S 5800 4100 1100 700 
U 52E10446
F0 "Stepper4" 60
F1 "stepper.sch" 60
F2 "DIR" I L 5800 4700 60 
F3 "STP" I L 5800 4600 60 
F4 "MS3" I L 5800 4500 60 
F5 "MS2" I L 5800 4400 60 
F6 "MS1" I L 5800 4300 60 
F7 "~ENB" I L 5800 4200 60 
F8 "VMM" I R 6900 4200 60 
$EndSheet
$Sheet
S 5800 5200 1100 700 
U 52E1046F
F0 "Stepper5" 60
F1 "stepper.sch" 60
F2 "DIR" I L 5800 5800 60 
F3 "STP" I L 5800 5700 60 
F4 "MS3" I L 5800 5600 60 
F5 "MS2" I L 5800 5500 60 
F6 "MS1" I L 5800 5400 60 
F7 "~ENB" I L 5800 5300 60 
F8 "VMM" I R 6900 5300 60 
$EndSheet
$Sheet
S 2500 5400 1100 200 
U 52E0E103
F0 "Dimmer1" 60
F1 "dimmer.sch" 60
F2 "VHH" I L 2500 5500 60 
F3 "~PWM" I R 3600 5500 60 
$EndSheet
$Sheet
S 2500 5800 1100 200 
U 52E104A4
F0 "Dimmer2" 60
F1 "dimmer.sch" 60
F2 "VHH" I L 2500 5900 60 
F3 "~PWM" I R 3600 5900 60 
$EndSheet
$Sheet
S 2500 6200 1100 200 
U 52E104B6
F0 "Dimmer3" 60
F1 "dimmer.sch" 60
F2 "VHH" I L 2500 6300 60 
F3 "~PWM" I R 3600 6300 60 
$EndSheet
$Comp
L DIODESCH D101
U 1 1 52EB526D
P 9200 3200
F 0 "D101" H 9200 3300 40  0000 C CNN
F 1 "SS14" H 9200 3100 40  0000 C CNN
F 2 "SM0805" H 9200 3200 60  0001 C CNN
F 3 "" H 9200 3200 60  0001 C CNN
	1    9200 3200
	-1   0    0    -1  
$EndComp
$Comp
L GND #PWR109
U 1 1 52EB5461
P 9200 4300
F 0 "#PWR109" H 9200 4300 30  0001 C CNN
F 1 "GND" H 9200 4230 30  0001 C CNN
F 2 "" H 9200 4300 60  0000 C CNN
F 3 "" H 9200 4300 60  0000 C CNN
	1    9200 4300
	1    0    0    -1  
$EndComp
$Comp
L CP1 C103
U 1 1 52EB6210
P 9700 3900
F 0 "C103" H 9750 4000 50  0000 L CNN
F 1 "10u 16V" H 9550 3800 50  0000 L CNN
F 2 "SMDHD/VF" H 9700 3900 60  0001 C CNN
F 3 "" H 9700 3900 60  0001 C CNN
	1    9700 3900
	-1   0    0    -1  
$EndComp
$Comp
L C C105
U 1 1 52EB70B0
P 10000 3500
F 0 "C105" H 10050 3600 50  0000 L CNN
F 1 "100n" H 10050 3400 50  0000 L CNN
F 2 "SM0603" H 10000 3500 60  0001 C CNN
F 3 "" H 10000 3500 60  0001 C CNN
	1    10000 3500
	-1   0    0    -1  
$EndComp
$Comp
L C C101
U 1 1 52EB7398
P 8700 3900
F 0 "C101" H 8750 4000 50  0000 L CNN
F 1 "100n" H 8750 3800 50  0000 L CNN
F 2 "SM0603" H 8700 3900 60  0001 C CNN
F 3 "" H 8700 3900 60  0001 C CNN
	1    8700 3900
	-1   0    0    -1  
$EndComp
$Comp
L +12V #PWR111
U 1 1 52EB8825
P 9700 3100
F 0 "#PWR111" H 9700 3050 20  0001 C CNN
F 1 "+12V" H 9700 3200 30  0000 C CNN
F 2 "" H 9700 3100 60  0000 C CNN
F 3 "" H 9700 3100 60  0000 C CNN
	1    9700 3100
	1    0    0    -1  
$EndComp
Text Label 10000 3200 0    60   ~ 0
12V 0.5A
Text GLabel 7400 5200 1    60   Input ~ 0
VMM
Wire Wire Line
	8400 4700 9000 4700
Wire Wire Line
	7000 4200 6900 4200
Wire Wire Line
	10000 4700 10000 4800
Wire Wire Line
	9400 4700 10000 4700
Wire Wire Line
	7400 5600 7400 5500
Wire Wire Line
	7400 5500 7500 5500
Connection ~ 7000 4200
Wire Wire Line
	7000 900  7000 5300
Connection ~ 7000 2000
Wire Wire Line
	7000 3100 6900 3100
Wire Wire Line
	5400 3900 7500 3900
Wire Wire Line
	5400 2800 7500 2800
Wire Wire Line
	5400 1700 7500 1700
Connection ~ 7400 2900
Wire Wire Line
	7400 2900 7500 2900
Connection ~ 7400 4000
Wire Wire Line
	7400 4000 7500 4000
Connection ~ 7300 3400
Wire Wire Line
	7300 1100 7300 3800
Wire Wire Line
	7300 3800 7500 3800
Connection ~ 7300 2300
Wire Wire Line
	7300 2700 7500 2700
Wire Wire Line
	7500 2400 7200 2400
Wire Wire Line
	7200 2400 7200 2700
Wire Wire Line
	7500 3500 7200 3500
Wire Wire Line
	7200 3500 7200 3800
Connection ~ 7300 1200
Wire Wire Line
	7300 1600 7500 1600
Connection ~ 7400 1800
Wire Wire Line
	7500 1400 7400 1400
Wire Wire Line
	7400 1400 7400 4100
Wire Wire Line
	7500 1300 7200 1300
Wire Wire Line
	7200 1300 7200 1600
Connection ~ 2400 5900
Wire Wire Line
	2400 6300 2500 6300
Wire Wire Line
	2100 5900 2500 5900
Wire Wire Line
	3600 5900 4000 5900
Wire Wire Line
	5800 5800 5400 5800
Wire Wire Line
	5800 5600 5400 5600
Wire Wire Line
	5800 5400 5400 5400
Wire Wire Line
	5800 4700 5400 4700
Wire Wire Line
	5800 4500 5400 4500
Wire Wire Line
	5800 4300 5400 4300
Wire Wire Line
	5400 3600 5800 3600
Wire Wire Line
	5400 3400 5800 3400
Wire Wire Line
	5400 3200 5800 3200
Wire Wire Line
	5800 2500 5400 2500
Wire Wire Line
	5800 2300 5400 2300
Wire Wire Line
	5800 2100 5400 2100
Wire Wire Line
	5400 1400 5800 1400
Wire Wire Line
	5400 1200 5800 1200
Wire Wire Line
	5400 1000 5800 1000
Connection ~ 8700 4700
Connection ~ 8700 5100
Wire Wire Line
	8700 4700 8700 5200
Connection ~ 9700 4700
Wire Wire Line
	9200 5400 9200 5800
Connection ~ 9700 5100
Wire Wire Line
	9700 4600 9700 5200
Wire Wire Line
	9700 5100 9600 5100
Wire Wire Line
	9700 5700 9700 5600
Connection ~ 9200 5700
Wire Wire Line
	8800 5100 8700 5100
Wire Wire Line
	8700 5600 8700 5700
Wire Wire Line
	5400 900  5800 900 
Wire Wire Line
	5400 1100 5800 1100
Wire Wire Line
	5400 1300 5800 1300
Wire Wire Line
	5800 2000 5400 2000
Wire Wire Line
	5800 2200 5400 2200
Wire Wire Line
	5800 2400 5400 2400
Wire Wire Line
	5400 3100 5800 3100
Wire Wire Line
	5400 3300 5800 3300
Wire Wire Line
	5400 3500 5800 3500
Wire Wire Line
	5800 4200 5400 4200
Wire Wire Line
	5800 4400 5400 4400
Wire Wire Line
	5800 4600 5400 4600
Wire Wire Line
	5800 5300 5400 5300
Wire Wire Line
	5800 5500 5400 5500
Wire Wire Line
	5800 5700 5400 5700
Wire Wire Line
	3600 5500 4000 5500
Wire Wire Line
	3600 6300 4000 6300
Wire Wire Line
	2100 5500 2500 5500
Wire Wire Line
	7400 1800 7500 1800
Wire Wire Line
	7300 1200 7500 1200
Wire Wire Line
	7300 2300 7500 2300
Connection ~ 7300 1600
Wire Wire Line
	7500 3400 7300 3400
Connection ~ 7300 2700
Wire Wire Line
	7400 3600 7500 3600
Connection ~ 7400 3600
Wire Wire Line
	7500 2500 7400 2500
Connection ~ 7400 2500
Wire Wire Line
	7200 1600 5400 1600
Wire Wire Line
	7200 2700 5400 2700
Wire Wire Line
	7200 3800 5400 3800
Wire Wire Line
	7000 900  6900 900 
Wire Wire Line
	7000 2000 6900 2000
Connection ~ 7000 3100
Wire Wire Line
	6900 5300 7500 5300
Connection ~ 7000 5300
Wire Wire Line
	10000 5700 10000 5200
Wire Wire Line
	8700 5700 10000 5700
Connection ~ 9700 5700
Wire Wire Line
	9200 3900 9200 4300
Wire Wire Line
	9000 3200 8700 3200
Wire Wire Line
	8700 3200 8700 3700
Wire Wire Line
	8400 3600 8800 3600
Wire Wire Line
	9400 3200 10000 3200
Wire Wire Line
	9700 3100 9700 3700
Wire Wire Line
	9700 3600 9600 3600
Wire Wire Line
	9700 4200 9700 4100
Wire Wire Line
	8700 4200 10000 4200
Connection ~ 9200 4200
Connection ~ 9700 3600
Wire Wire Line
	10000 4200 10000 3700
Connection ~ 9700 4200
Wire Wire Line
	10000 3200 10000 3300
Connection ~ 9700 3200
Connection ~ 8700 3600
Wire Wire Line
	8700 4100 8700 4200
Wire Wire Line
	8400 3450 8400 6100
Wire Wire Line
	4000 900  3600 900 
Wire Wire Line
	3600 1000 4000 1000
Wire Wire Line
	4000 1100 3600 1100
Wire Wire Line
	4000 1200 3600 1200
Wire Wire Line
	4000 1300 3600 1300
Wire Wire Line
	4000 1400 3600 1400
Wire Wire Line
	4000 1600 3600 1600
Wire Wire Line
	4000 1700 3600 1700
Wire Wire Line
	4000 1800 3600 1800
Wire Wire Line
	4000 2700 3600 2700
Wire Wire Line
	4000 2800 3600 2800
Wire Wire Line
	4000 2900 3600 2900
Wire Wire Line
	4000 3000 3600 3000
Wire Wire Line
	4000 3100 3600 3100
Wire Wire Line
	2200 5700 2200 6200
Wire Wire Line
	2200 6100 2100 6100
Wire Wire Line
	2200 5700 2100 5700
Connection ~ 2200 6100
Wire Wire Line
	4000 3200 3600 3200
Wire Wire Line
	4000 3400 3600 3400
Wire Wire Line
	4000 3500 3600 3500
Wire Wire Line
	4000 3700 3600 3700
Wire Wire Line
	4000 3800 3600 3800
Wire Wire Line
	4000 3900 3600 3900
Wire Wire Line
	4000 2000 3600 2000
Wire Wire Line
	4000 2100 3600 2100
Wire Wire Line
	4000 2200 3600 2200
Wire Wire Line
	4000 2300 3600 2300
Wire Wire Line
	4000 2400 3600 2400
Wire Wire Line
	4000 2500 3600 2500
Wire Wire Line
	7400 5300 7400 5200
Connection ~ 7400 5300
Connection ~ 8400 3600
$Comp
L CONN_4 P104
U 1 1 52F64AC1
P 10150 6250
F 0 "P104" V 10100 6250 50  0000 C CNN
F 1 "PWR_EXT" V 10200 6250 50  0000 C CNN
F 2 "SIL-4" H 10150 6250 60  0001 C CNN
F 3 "" H 10150 6250 60  0000 C CNN
	1    10150 6250
	1    0    0    1   
$EndComp
$Comp
L GND #PWR113
U 1 1 52F64AC7
P 9700 6500
F 0 "#PWR113" H 9700 6500 30  0001 C CNN
F 1 "GND" H 9700 6430 30  0001 C CNN
F 2 "" H 9700 6500 60  0000 C CNN
F 3 "" H 9700 6500 60  0000 C CNN
	1    9700 6500
	1    0    0    -1  
$EndComp
Wire Wire Line
	5400 6300 9800 6300
Wire Wire Line
	9700 6500 9700 6400
Wire Wire Line
	9700 6400 9800 6400
Wire Wire Line
	5400 6200 9800 6200
Text GLabel 8400 3450 1    60   Input ~ 0
VPP
Wire Wire Line
	8400 6100 9800 6100
Connection ~ 8400 4700
$Comp
L LM7805CT U101
U 1 1 52ED8674
P 9200 3650
F 0 "U101" H 9000 3850 40  0000 C CNN
F 1 "LM78M12" H 9200 3850 40  0000 L CNN
F 2 "DPAK2" H 9200 3750 30  0001 C CIN
F 3 "" H 9200 3650 60  0000 C CNN
	1    9200 3650
	1    0    0    -1  
$EndComp
$Comp
L LM7805CT U102
U 1 1 52ED8D29
P 9200 5150
F 0 "U102" H 9000 5350 40  0000 C CNN
F 1 "LM78M05" H 9200 5350 40  0000 L CNN
F 2 "DPAK2" H 9200 5250 30  0001 C CIN
F 3 "" H 9200 5150 60  0000 C CNN
	1    9200 5150
	1    0    0    -1  
$EndComp
$Sheet
S 2500 4200 1100 200 
U 52F48E21
F0 "Thermistor1" 50
F1 "thermistor.sch" 50
F2 "ADC_IN" I R 3600 4300 60 
$EndSheet
$Sheet
S 2500 4600 1100 200 
U 52F49B73
F0 "Thermistor2" 50
F1 "thermistor.sch" 50
F2 "ADC_IN" I R 3600 4700 60 
$EndSheet
$Sheet
S 2500 5000 1100 200 
U 52F4A21E
F0 "Thermistor3" 50
F1 "thermistor.sch" 50
F2 "ADC_IN" I R 3600 5100 60 
$EndSheet
Wire Wire Line
	3600 4300 4000 4300
Wire Wire Line
	4000 4700 3600 4700
Wire Wire Line
	4000 5100 3600 5100
$Comp
L CONN_3 K101
U 1 1 52F9DDD9
P 1750 4100
F 0 "K101" V 1700 4100 50  0000 C CNN
F 1 "ADC_2" V 1800 4100 40  0000 C CNN
F 2 "SIL-3" H 1750 4100 60  0001 C CNN
F 3 "" H 1750 4100 60  0000 C CNN
	1    1750 4100
	-1   0    0    1   
$EndComp
$Comp
L GND #PWR102
U 1 1 52F9E7B6
P 2200 4300
F 0 "#PWR102" H 2200 4300 30  0001 C CNN
F 1 "GND" H 2200 4230 30  0001 C CNN
F 2 "" H 2200 4300 60  0000 C CNN
F 3 "" H 2200 4300 60  0000 C CNN
	1    2200 4300
	1    0    0    -1  
$EndComp
$Comp
L VAA #PWR101
U 1 1 52F9E978
P 2200 3900
F 0 "#PWR101" H 2200 3960 30  0001 C CNN
F 1 "VAA" H 2200 4010 30  0000 C CNN
F 2 "" H 2200 3900 60  0000 C CNN
F 3 "" H 2200 3900 60  0000 C CNN
	1    2200 3900
	1    0    0    -1  
$EndComp
Wire Wire Line
	4000 4100 2100 4100
Wire Wire Line
	2100 4000 2200 4000
Wire Wire Line
	2200 4000 2200 3900
Wire Wire Line
	2100 4200 2200 4200
Wire Wire Line
	2200 4200 2200 4300
$Comp
L CONN_3 K102
U 1 1 52FA2E82
P 6150 7300
F 0 "K102" V 6100 7300 50  0000 C CNN
F 1 "ICU_1_4" V 6200 7300 40  0000 C CNN
F 2 "SIL-3" H 6150 7300 60  0001 C CNN
F 3 "" H 6150 7300 60  0000 C CNN
	1    6150 7300
	1    0    0    1   
$EndComp
Wire Wire Line
	5800 7300 5400 7300
$Comp
L +3.3V #PWR104
U 1 1 52FA8D22
P 5700 7100
F 0 "#PWR104" H 5700 7060 30  0001 C CNN
F 1 "+3.3V" H 5700 7210 30  0000 C CNN
F 2 "" H 5700 7100 60  0000 C CNN
F 3 "" H 5700 7100 60  0000 C CNN
	1    5700 7100
	1    0    0    -1  
$EndComp
Wire Wire Line
	5700 7200 5800 7200
Wire Wire Line
	5700 7100 5700 7200
Wire Wire Line
	2400 5900 2400 6300
Wire Wire Line
	5800 7400 5700 7400
$Comp
L GND #PWR105
U 1 1 53021887
P 5700 7500
F 0 "#PWR105" H 5700 7500 30  0001 C CNN
F 1 "GND" H 5700 7430 30  0001 C CNN
F 2 "" H 5700 7500 60  0000 C CNN
F 3 "" H 5700 7500 60  0000 C CNN
	1    5700 7500
	1    0    0    -1  
$EndComp
$Sheet
S 2500 6600 1100 300 
U 53066EBB
F0 "FanControl1" 50
F1 "fan.sch" 50
F2 "TACH" I R 3600 6800 60 
F3 "PWM" I R 3600 6700 60 
$EndSheet
$Sheet
S 2500 7100 1100 300 
U 5306707B
F0 "FanControl2" 50
F1 "fan.sch" 50
F2 "TACH" I R 3600 7300 60 
F3 "PWM" I R 3600 7200 60 
$EndSheet
$Sheet
S 5800 6600 1100 300 
U 530673F7
F0 "FanControl3" 50
F1 "fan.sch" 50
F2 "TACH" I L 5800 6800 60 
F3 "PWM" I L 5800 6700 60 
$EndSheet
Wire Wire Line
	5700 7400 5700 7500
Wire Wire Line
	5400 6700 5800 6700
Wire Wire Line
	5400 6800 5800 6800
Wire Wire Line
	3600 6700 4000 6700
Wire Wire Line
	3600 6800 4000 6800
Wire Wire Line
	3600 7200 4000 7200
Wire Wire Line
	3600 7300 4000 7300
$EndSCHEMATC
