PCBNEW-LibModule-V1  Сб 01 фев 2014 14:04:24
# encoding utf-8
Units mm
$INDEX
uSD
$EndINDEX
$MODULE uSD
Po 0 0 0 15 52ECAA5C 00000000 ~~
Li uSD
Sc 0
AR 
Op 0 0 0
T0 0 1.905 1.524 1.524 0 0.3048 N V 21 N "uSD"
T1 0.635 -1.905 1.524 1.524 0 0.3048 N V 21 N "VAL**"
DS -0.1 4.1 -0.8 3.4 0.381 21
DS -0.8 3.4 -1.5 4.1 0.381 21
DS 2.3 5.1 -1.5 5.1 0.381 21
DS 2.3 4.1 -0.1 4.1 0.381 21
DC 3.4 -4.9 4.1 -4.9 0.381 21
DC 3.4 4.9 4.1 4.9 0.381 21
DS -6 6.8 6 6.8 0.381 21
DS -6 -6.8 6 -6.8 0.381 21
DS 6 -6.8 6 6.8 0.381 21
DA -13.6 0 -6 -4.8 640 0.381 21
DS -6 6.8 -6 4.8 0.381 21
DS -6 -6.8 -6 -4.8 0.381 21
$PAD
Sh "0" R 2.524 1.524 0 0 0
Dr 0 0 0
At SMD N 00888000
Ne 0 ""
Po -1.6 -6.8
$EndPAD
$PAD
Sh "0" R 2.524 1.524 0 0 0
Dr 0 0 0
At SMD N 00888000
Ne 0 ""
Po -1.6 6.8
$EndPAD
$PAD
Sh "8" R 1.524 0.524 0 0 0
Dr 0 0 0
At SMD N 00888000
Ne 0 ""
Po 6.7 -4.8
$EndPAD
$PAD
Sh "7" R 1.524 0.524 0 0 0
Dr 0 0 0
At SMD N 00888000
Ne 0 ""
Po 6.7 -3.7
$EndPAD
$PAD
Sh "6" R 1.524 0.524 0 0 0
Dr 0 0 0
At SMD N 00888000
Ne 0 ""
Po 6.7 -2.6
$EndPAD
$PAD
Sh "5" R 1.524 0.524 0 0 0
Dr 0 0 0
At SMD N 00888000
Ne 0 ""
Po 6.7 -1.5
$EndPAD
$PAD
Sh "4" R 1.524 0.524 0 0 0
Dr 0 0 0
At SMD N 00888000
Ne 0 ""
Po 6.7 -0.4
$EndPAD
$PAD
Sh "3" R 1.524 0.524 0 0 0
Dr 0 0 0
At SMD N 00888000
Ne 0 ""
Po 6.7 0.7
$EndPAD
$PAD
Sh "2" R 1.524 0.524 0 0 0
Dr 0 0 0
At SMD N 00888000
Ne 0 ""
Po 6.7 1.8
$EndPAD
$PAD
Sh "1" R 1.524 0.524 0 0 0
Dr 0 0 0
At SMD N 00888000
Ne 0 ""
Po 6.7 2.9
$EndPAD
$PAD
Sh "9" R 1.524 0.524 0 0 0
Dr 0 0 0
At SMD N 00888000
Ne 0 ""
Po 6.7 4
$EndPAD
$PAD
Sh "10" R 1.524 0.524 0 0 0
Dr 0 0 0
At SMD N 00888000
Ne 0 ""
Po 6.7 5.1
$EndPAD
$EndMODULE uSD
$EndLIBRARY
