PCBNEW-LibModule-V1  Чт 30 янв 2014 13:32:15
# encoding utf-8
$INDEX
STEPSTICK
$EndINDEX
$MODULE STEPSTICK
Po 0 0 0 15 52E9FFE9 52E9FF89 ~~
Li STEPSTICK
Sc 52E9FF89
AR 
Op 0 0 0
T0 0 750 600 600 900 120 N V 21 N "STEPSTICK"
T1 0 -2250 600 600 0 120 N V 21 N "VAL**"
$PAD
Sh "1" C 600 600 0 0 0
Dr 320 0 0
At STD N 00E0FFFF
Ne 0 ""
Po -2500 -3500
$EndPAD
$PAD
Sh "2" C 600 600 0 0 0
Dr 320 0 0
At STD N 00E0FFFF
Ne 0 ""
Po -2500 -2500
$EndPAD
$PAD
Sh "3" C 600 600 0 0 0
Dr 320 0 0
At STD N 00E0FFFF
Ne 0 ""
Po -2500 -1500
$EndPAD
$PAD
Sh "4" C 600 600 0 0 0
Dr 320 0 0
At STD N 00E0FFFF
Ne 0 ""
Po -2500 -500
$EndPAD
$PAD
Sh "5" C 600 600 0 0 0
Dr 320 0 0
At STD N 00E0FFFF
Ne 0 ""
Po -2500 500
$EndPAD
$PAD
Sh "6" C 600 600 0 0 0
Dr 320 0 0
At STD N 00E0FFFF
Ne 0 ""
Po -2500 1500
$EndPAD
$PAD
Sh "7" C 600 600 0 0 0
Dr 320 0 0
At STD N 00E0FFFF
Ne 0 ""
Po -2500 2500
$EndPAD
$PAD
Sh "8" C 600 600 0 0 0
Dr 320 0 0
At STD N 00E0FFFF
Ne 0 ""
Po -2500 3500
$EndPAD
$PAD
Sh "9" C 600 600 0 0 0
Dr 320 0 0
At STD N 00E0FFFF
Ne 0 ""
Po 2500 -3500
$EndPAD
$PAD
Sh "10" C 600 600 0 0 0
Dr 320 0 0
At STD N 00E0FFFF
Ne 0 ""
Po 2500 -2500
$EndPAD
$PAD
Sh "11" C 600 600 0 0 0
Dr 320 0 0
At STD N 00E0FFFF
Ne 0 ""
Po 2500 -1500
$EndPAD
$PAD
Sh "12" C 600 600 0 0 0
Dr 320 0 0
At STD N 00E0FFFF
Ne 0 ""
Po 2500 -500
$EndPAD
$PAD
Sh "13" C 600 600 0 0 0
Dr 320 0 0
At STD N 00E0FFFF
Ne 0 ""
Po 2500 500
$EndPAD
$PAD
Sh "14" C 600 600 0 0 0
Dr 320 0 0
At STD N 00E0FFFF
Ne 0 ""
Po 2500 1500
$EndPAD
$PAD
Sh "15" C 600 600 0 0 0
Dr 320 0 0
At STD N 00E0FFFF
Ne 0 ""
Po 2500 2500
$EndPAD
$PAD
Sh "16" C 600 600 0 0 0
Dr 320 0 0
At STD N 00E0FFFF
Ne 0 ""
Po 2500 3500
$EndPAD
$EndMODULE  STEPSTICK
$EndLIBRARY
