EESchema Schematic File Version 2
LIBS:power
LIBS:device
LIBS:transistors
LIBS:conn
LIBS:linear
LIBS:regul
LIBS:74xx
LIBS:cmos4000
LIBS:adc-dac
LIBS:memory
LIBS:xilinx
LIBS:special
LIBS:microcontrollers
LIBS:dsp
LIBS:microchip
LIBS:analog_switches
LIBS:motorola
LIBS:texas
LIBS:intel
LIBS:audio
LIBS:interface
LIBS:digital-audio
LIBS:philips
LIBS:display
LIBS:cypress
LIBS:siliconi
LIBS:opto
LIBS:atmel
LIBS:contrib
LIBS:valves
LIBS:stm32
LIBS:comm
LIBS:a4988
LIBS:n_fet
LIBS:project-cache
EELAYER 24 0
EELAYER END
$Descr A4 11693 8268
encoding utf-8
Sheet 12 17
Title ""
Date ""
Rev ""
Comp ""
Comment1 ""
Comment2 ""
Comment3 ""
Comment4 ""
$EndDescr
Text HLabel 4300 3800 0    60   Input ~ 0
ADC_IN
$Comp
L VAA #PWR1101
U 1 1 52F4EC93
P 4700 3100
AR Path="/52F48E21/52F4EC93" Ref="#PWR1101"  Part="1" 
AR Path="/52F49B73/52F4EC93" Ref="#PWR1201"  Part="1" 
AR Path="/52F4A21E/52F4EC93" Ref="#PWR1301"  Part="1" 
F 0 "#PWR1301" H 4700 3160 30  0001 C CNN
F 1 "VAA" H 4700 3210 30  0000 C CNN
F 2 "" H 4700 3100 60  0000 C CNN
F 3 "" H 4700 3100 60  0000 C CNN
	1    4700 3100
	1    0    0    -1  
$EndComp
$Comp
L GND #PWR1102
U 1 1 52F4ECAE
P 4700 4500
AR Path="/52F48E21/52F4ECAE" Ref="#PWR1102"  Part="1" 
AR Path="/52F49B73/52F4ECAE" Ref="#PWR1202"  Part="1" 
AR Path="/52F4A21E/52F4ECAE" Ref="#PWR1302"  Part="1" 
F 0 "#PWR1302" H 4700 4500 30  0001 C CNN
F 1 "GND" H 4700 4430 30  0001 C CNN
F 2 "" H 4700 4500 60  0000 C CNN
F 3 "" H 4700 4500 60  0000 C CNN
	1    4700 4500
	1    0    0    -1  
$EndComp
$Comp
L R R1101
U 1 1 52F4ECBD
P 4700 3450
AR Path="/52F48E21/52F4ECBD" Ref="R1101"  Part="1" 
AR Path="/52F49B73/52F4ECBD" Ref="R1201"  Part="1" 
AR Path="/52F4A21E/52F4ECBD" Ref="R1301"  Part="1" 
F 0 "R1301" V 4780 3450 40  0000 C CNN
F 1 "4.7K" V 4707 3451 40  0000 C CNN
F 2 "SM0603" V 4630 3450 30  0001 C CNN
F 3 "" H 4700 3450 30  0000 C CNN
	1    4700 3450
	-1   0    0    1   
$EndComp
$Comp
L CONN_2 P1101
U 1 1 52F4ECD6
P 6150 3900
AR Path="/52F48E21/52F4ECD6" Ref="P1101"  Part="1" 
AR Path="/52F49B73/52F4ECD6" Ref="P1201"  Part="1" 
AR Path="/52F4A21E/52F4ECD6" Ref="P1301"  Part="1" 
F 0 "P1301" V 6100 3900 40  0000 C CNN
F 1 "TEMP" V 6200 3900 40  0000 C CNN
F 2 "SIL-2" H 6150 3900 60  0001 C CNN
F 3 "" H 6150 3900 60  0000 C CNN
	1    6150 3900
	1    0    0    1   
$EndComp
$Comp
L INDUCTOR L1102
U 1 1 52F4EF44
P 5400 4000
AR Path="/52F48E21/52F4EF44" Ref="L1102"  Part="1" 
AR Path="/52F49B73/52F4EF44" Ref="L1202"  Part="1" 
AR Path="/52F4A21E/52F4EF44" Ref="L1302"  Part="1" 
F 0 "L1302" V 5350 4000 40  0000 C CNN
F 1 "470R 100Mhz (opt)" V 5500 4000 40  0000 C CNN
F 2 "SM0805" H 5400 4000 60  0001 C CNN
F 3 "" H 5400 4000 60  0000 C CNN
	1    5400 4000
	0    -1   1    0   
$EndComp
$Comp
L INDUCTOR L1101
U 1 1 52F4EF56
P 5400 3800
AR Path="/52F48E21/52F4EF56" Ref="L1101"  Part="1" 
AR Path="/52F49B73/52F4EF56" Ref="L1201"  Part="1" 
AR Path="/52F4A21E/52F4EF56" Ref="L1301"  Part="1" 
F 0 "L1301" V 5350 3800 40  0000 C CNN
F 1 "470R 100Mhz" V 5500 3800 40  0000 C CNN
F 2 "SM0805" H 5400 3800 60  0001 C CNN
F 3 "" H 5400 3800 60  0000 C CNN
	1    5400 3800
	0    -1   1    0   
$EndComp
Wire Wire Line
	5800 3800 5700 3800
Wire Wire Line
	5800 4000 5700 4000
Wire Wire Line
	5100 4000 5000 4000
Wire Wire Line
	5000 4000 5000 4400
Wire Wire Line
	4300 3800 5100 3800
Wire Wire Line
	4700 3200 4700 3100
$Comp
L CP1 C1102
U 1 1 52F556B5
P 4700 4100
AR Path="/52F48E21/52F556B5" Ref="C1102"  Part="1" 
AR Path="/52F49B73/52F556B5" Ref="C1202"  Part="1" 
AR Path="/52F4A21E/52F556B5" Ref="C1302"  Part="1" 
F 0 "C1302" H 4750 4200 50  0000 L CNN
F 1 "10u" H 4750 4000 50  0000 L CNN
F 2 "SM0805" H 4700 4100 60  0001 C CNN
F 3 "" H 4700 4100 60  0000 C CNN
	1    4700 4100
	-1   0    0    -1  
$EndComp
$Comp
L C C1101
U 1 1 52F556C4
P 4400 4100
AR Path="/52F48E21/52F556C4" Ref="C1101"  Part="1" 
AR Path="/52F49B73/52F556C4" Ref="C1201"  Part="1" 
AR Path="/52F4A21E/52F556C4" Ref="C1301"  Part="1" 
F 0 "C1301" H 4400 4200 40  0000 L CNN
F 1 "100n" H 4406 4015 40  0000 L CNN
F 2 "SM0603" H 4438 3950 30  0001 C CNN
F 3 "" H 4400 4100 60  0000 C CNN
	1    4400 4100
	-1   0    0    -1  
$EndComp
Wire Wire Line
	4700 3700 4700 3900
Connection ~ 4700 3800
Wire Wire Line
	4400 3900 4400 3800
Connection ~ 4400 3800
Wire Wire Line
	4700 4300 4700 4500
Wire Wire Line
	5000 4400 4400 4400
Wire Wire Line
	4400 4400 4400 4300
Connection ~ 4700 4400
$EndSCHEMATC
